<svg xmlns="http://www.w3.org/2000/svg" viewBox="0 0 141.34475 141.34475">
  <title>Recurso 1</title>
  <g id="f6e0c7ee-7aea-4f96-b519-505b76d00958" data-name="Capa 2">
    <g id="ba05a3ea-6c48-4125-9ccc-3171e1c1c52d" data-name="Capa 1">
      <g>
        <rect x="0.42319" y="0.42319" width="140.49838" height="140.49838" rx="10" fill="none" stroke="#fefefe" stroke-miterlimit="10" stroke-width="0.84638"/>
        <g>
          <path d="M59.05669,31.18433v-.10869c1.825-.77778,2.84555-2.01227,2.84555-3.78378,0-2.97923-2.36207-4.67042-5.879-4.67042a8.00689,8.00689,0,0,0-5.36789,2.17307l1.98657,2.417a4.73188,4.73188,0,0,1,3.19393-1.5038c1.34229,0,2.09347.69764,2.09347,1.87859,0,1.36995-.96589,2.28158-4.02632,2.28158v2.79184c3.70436,0,4.59011.94,4.59011,2.4422,0,1.28964-1.10063,2.01388-2.76506,2.01388a5.40072,5.40072,0,0,1-3.73113-1.718L50.17219,37.8938a7.41542,7.41542,0,0,0,5.9324,2.41686c3.43558,0,6.33449-1.79953,6.33449-4.96615A4.23113,4.23113,0,0,0,59.05669,31.18433Z" fill="#fefefe"/>
          <path d="M71.88684,29.33108a4.79674,4.79674,0,0,0-3.40827,1.79953c.13385-3.9726,1.63676-5.31578,3.51607-5.31578a3.91187,3.91187,0,0,1,2.65726,1.20772l2.06653-2.3619A6.76863,6.76863,0,0,0,71.753,22.62144c-3.59728,0-6.89829,2.87214-6.89829,9.23359,0,5.98522,3.14021,8.45563,6.44176,8.45563a5.4821,5.4821,0,0,0,5.66362-5.71734C76.96008,30.99533,74.81306,29.33108,71.88684,29.33108ZM71.216,37.35677c-1.18095,0-2.30836-.85809-2.65727-3.54284a3.08737,3.08737,0,0,1,2.57695-1.691c1.288,0,2.228.6707,2.228,2.47041C73.36369,36.52545,72.39709,37.35677,71.216,37.35677Z" fill="#fefefe"/>
          <path d="M85.0129,22.62144c-3.65082,0-6.09392,2.97922-6.09392,8.77706,0,5.79765,2.4431,8.91216,6.09392,8.91216,3.65046,0,6.09267-3.11451,6.09267-8.91216C91.10557,25.60066,88.66336,22.62144,85.0129,22.62144Zm0,14.62825c-1.31587,0-2.363-1.20772-2.363-5.85119,0-4.67025,1.04709-5.71752,2.363-5.71752,1.34157,0,2.36154,1.04727,2.36154,5.71752C87.37444,36.042,86.35447,37.24969,85.0129,37.24969Z" fill="#fefefe"/>
        </g>
        <path d="M40.53793,50.20933V23.31284a75.06235,75.06235,0,0,0-11.41406,3.3125c-.57226.22363-1.11865.45313-1.65332.68555-.14648.064-.29.12793-.43359.19238-.46.20606-.90674.41553-1.33643.62842-.06982.03467-.144.06836-.21289.103-.48291.24316-.94043.4917-1.38232.74316-.11573.06592-.22754.13233-.34034.19873q-.53906.31715-1.03369.6416c-.08154.05371-.168.10694-.24756.16065q-.57861.39111-1.09033.793c-.08154.06445-.15722.1289-.23633.19336q-.41015.334-.77392.67382c-.0708.06641-.14453.13233-.21289.19922a11.2395,11.2395,0,0,0-.78076.83985c-.04688.05615-.08643.11328-.13184.16992a8.59228,8.59228,0,0,0-.51855.72314c-.04834.0752-.09766.1499-.14258.22559a6.87475,6.87475,0,0,0-.44971.8833c-.01562.03809-.02539.07666-.04.11475a5.67856,5.67856,0,0,0-.24365.80078c-.01856.08056-.03613.16162-.05078.24267a5.1925,5.1925,0,0,0-.09326.92285C17.71909,42.33237,26.75082,47.25132,40.53793,50.20933Z" fill="none" stroke="#fefefe" stroke-linecap="round" stroke-linejoin="round" stroke-width="2"/>
        <path d="M123.77329,37.96909a5.23432,5.23432,0,0,0,.15918-1.208c0-5.57177-9.03174-10.49023-22.81885-13.44824v26.897C113.888,47.46714,122.5726,43.0394,123.77329,37.96909Z" fill="none" stroke="#fefefe" stroke-linecap="round" stroke-linejoin="round" stroke-width="2"/>
        <path d="M123.77321,37.96911c-2.00763,8.47919-24.93678,15.16724-52.94738,15.16724-29.33,0-53.10676-7.33144-53.10676-16.37531v66.76948h.15937c2.00763,8.47919,24.93661,15.16742,52.94739,15.16742,29.32986,0,53.10658-7.33162,53.10658-16.3755a5.23949,5.23949,0,0,0-.1592-1.20807Z" fill="none" stroke="#fefefe" stroke-linecap="round" stroke-linejoin="round" stroke-width="2"/>
        <g>
          <path d="M113.98618,91.86606a33.62961,33.62961,0,0,0,4.35254-2.22021" fill="none" stroke="#fefefe" stroke-linecap="round" stroke-linejoin="round"/>
          <polygon points="119.169 92.053 121.216 87.507 116.256 88.006 119.169 92.053" fill="#fefefe"/>
        </g>
        <g>
          <path d="M74.41538,98.661a153.05811,153.05811,0,0,0,20.73974-1.77881" fill="none" stroke="#fefefe" stroke-linecap="round" stroke-linejoin="round"/>
          <polygon points="75.189 101.11 70.826 98.698 75.096 96.125 75.189 101.11" fill="#fefefe"/>
        </g>
        <g>
          <path d="M118.22859,103.383l-4.17914-4.17928,2.98151-1.72214a.70226.70226,0,0,0-.09108-1.26036l-13.29512-5.30345a.7022.7022,0,0,0-.91247.91233l5.30261,13.29668a.70235.70235,0,0,0,1.26049.09114l1.722-2.9815,4.17886,4.17928a.70209.70209,0,0,0,.99315,0l2.03926-2.03955A.70229.70229,0,0,0,118.22859,103.383Z" fill="#fefefe"/>
          <path d="M100.5188,87.711a.70231.70231,0,0,0-.99322.99322l1.56044,1.56044a.70224.70224,0,1,0,.99308-.99315Z" fill="#fefefe"/>
          <path d="M101.04762,92.56593a.70234.70234,0,0,0-.70233-.70226H98.13852a.7023.7023,0,1,0,0,1.40459h2.20677A.7024.7024,0,0,0,101.04762,92.56593Z" fill="#fefefe"/>
          <path d="M100.763,94.73339,99.20231,96.294a.70226.70226,0,1,0,.99315.99315l1.56058-1.5605a.70226.70226,0,1,0-.99308-.99322Z" fill="#fefefe"/>
          <path d="M104.38026,89.233a.70236.70236,0,0,0,.70233-.70233v-2.207a.7023.7023,0,0,0-1.40459,0v2.207A.70228.70228,0,0,0,104.38026,89.233Z" fill="#fefefe"/>
          <path d="M107.04394,90.14711a.7.7,0,0,0,.49657-.20568l1.56036-1.56044a.70229.70229,0,1,0-.99315-.99322l-1.56036,1.5605a.70227.70227,0,0,0,.49658,1.19884Z" fill="#fefefe"/>
        </g>
        <path d="M65.38182,93.87651a1.3683,1.3683,0,0,0,1.39-.04506L81.791,84.27375a1.36641,1.36641,0,0,0,0-2.30476l-15.01923-9.5577a1.36493,1.36493,0,0,0-2.09859,1.15239V92.67906A1.36692,1.36692,0,0,0,65.38182,93.87651Z" fill="#fefefe"/>
      </g>
    </g>
  </g>
</svg>
