<svg xmlns="http://www.w3.org/2000/svg" xmlns:xlink="http://www.w3.org/1999/xlink" viewBox="0 0 50 61.98633">
  <defs>
    <clipPath id="af1a9943-d760-418a-bdd8-c1baa1c646d1">
      <rect width="50" height="50" rx="5" fill="#fefefe"/>
    </clipPath>
  </defs>
  <title>Recurso 71</title>
  <g id="b6cafc29-40f4-457c-b425-2e89d80a8a4b" data-name="Capa 2">
    <g id="bfd9fe66-4eba-4a2d-8baf-4b2cdf609162" data-name="Capa 1">
      <g>
        <rect width="50" height="50" rx="5" fill="#fefefe"/>
        <g clip-path="url(#af1a9943-d760-418a-bdd8-c1baa1c646d1)">
          <g>
            <path d="M22.93923,22.65256a.10159.10159,0,0,0-.09792.10423,11.59189,11.59189,0,0,1-.03514,1.54864l.002-.01027a16.56019,16.56019,0,0,1-.39645,2.30594c-.08689.36641-.1864.7293-.29221,1.09138-.05527.19113-.1137.38023-.17374.57019-.05289.16662-.10658.33365-.16541.49789a16.53509,16.53509,0,0,0-.87385,2.2882,2.886,2.886,0,0,0-.06158.55754,1.982,1.982,0,0,0,.0837.59226,1.57549,1.57549,0,0,0,.10581.25708,1.8935,1.8935,0,0,0,.1769.28586,2.13925,2.13925,0,0,0,.40433.40789,2.97485,2.97485,0,0,0,2.107.4831,6.007,6.007,0,0,0,1.0961-.2067c.18005-.049.357-.10739.53384-.16743.16428-.05527.32853-.10739.4928-.15951a.1144.1144,0,0,0-.0695-.218q-.30089.07581-.6065.13072l.03789-.00594c-.33956.06-.68231.11216-1.025.15005a5.69989,5.69989,0,0,1-1.10719.02527l.0632.00473a3.2011,3.2011,0,0,1-.7534-.16307,2.39131,2.39131,0,0,1-.42883-.22622,2.29088,2.29088,0,0,1-.3214-.29379,1.80543,1.80543,0,0,1-.21875-.33091,1.89939,1.89939,0,0,1-.10424-.33167,2.31808,2.31808,0,0,1-.01936-.49041,5.25941,5.25941,0,0,1,.3309-1.26747l-.00594.01379.01581-.04144.00158-.004-.00077.0008c.17293-.45329.36681-.90065.50618-1.36543.19113-.64479.36168-1.29669.507-1.95373a15.03381,15.03381,0,0,0,.39645-3.98369.09922.09922,0,0,0-.09874-.09594h-.0055m-1.30619,7.402-.00987.02765a.21813.21813,0,0,0,.01068-.03081l-.00081.00316M22.805,24.32358l.00121-.01815-.00121.01815"/>
            <path d="M27.92785,34.975c-.25825.15005-.51965.28906-.79132.413a7.7897,7.7897,0,0,1-.86867.3309c.01262-.00473.02527-.00869.0395-.01265a7.8911,7.8911,0,0,1-1.93877.32536,8.88963,8.88963,0,0,1-1.18692-.03788A9.94821,9.94821,0,0,1,21.95129,35.79a10.9158,10.9158,0,0,1-1.425-.44541.10217.10217,0,1,0-.07226.19113c.3001.11212.60177.21636.90818.3064.29694.09.59861.16582.90186.23217a9.95758,9.95758,0,0,0,2.01058.23532,6.88952,6.88952,0,0,0,1.95374-.24955,5.82674,5.82674,0,0,0,.89555-.338,5.095,5.095,0,0,0,.92394-.55358.11415.11415,0,0,0,.0332-.13662.12649.12649,0,0,0-.109-.06874.083.083,0,0,0-.0442.01185"/>
            <path d="M26.49214,36.71948a2.0535,2.0535,0,0,1-.14293.16586,1.97577,1.97577,0,0,1-.33721.25032,2.94054,2.94054,0,0,1-.63492.25667l.02527-.00792a5.446,5.446,0,0,1-1.34728.16743h.02685a9.99379,9.99379,0,0,1-1.39147-.0932,10.455,10.455,0,0,1-1.16561-.2227.097.097,0,0,0-.07424.019.10941.10941,0,0,0-.03788.06951.09979.09979,0,0,0,.019.07265.11883.11883,0,0,0,.06947.03947,10.573,10.573,0,0,0,1.21615.229,9.41145,9.41145,0,0,0,1.4752.08374A5.01325,5.01325,0,0,0,25.595,37.536a2.69593,2.69593,0,0,0,.57177-.25744,2.02772,2.02772,0,0,0,.248-.18,1.65188,1.65188,0,0,0,.2369-.25587.10237.10237,0,0,0-.019-.14216.096.096,0,0,0-.06081-.02054.09867.09867,0,0,0-.07974.0395"/>
            <path d="M27.867,34.88814a.19491.19491,0,0,0-.06635.14059.20625.20625,0,0,0,.05054.14685.22611.22611,0,0,0,.14216.06793l.00392.00081a.77682.77682,0,0,1,.12086.04185.46822.46822,0,0,1,.04815.03238.54125.54125,0,0,1,.05685.064.42489.42489,0,0,1,.0332.05842.18145.18145,0,0,0,.24086.07582.172.172,0,0,0,.08685-.10109.19306.19306,0,0,0-.011-.139.69816.69816,0,0,0-.21167-.29847.67858.67858,0,0,0-.13424-.08374.3969.3969,0,0,0-.10346-.03789c-.03631-.00792-.07185-.01423-.10816-.02054a.08739.08739,0,0,0-.02054-.00157.20822.20822,0,0,0-.12793.05369m.33009.45487c.0087.01262.01816.02608.026.03951l-.026-.03951"/>
            <path d="M44.19043,49.17236a6.9472,6.9472,0,0,0-.583-1.36523,4.66516,4.66516,0,0,0-1.79492-1.792,6.22225,6.22225,0,0,0-1.60547-.6128,12.14412,12.14412,0,0,0-1.78076-.28418c-.54346-.05224-1.09277-.08447-1.65527-.11547l-.188-.011c-.59668-.0332-1.17969-.0686-1.75244-.14526a5.381,5.381,0,0,1-1.39063-.346,2.748,2.748,0,0,1-.53613-.31665,2.0881,2.0881,0,0,1-.31494-.31812,2.37882,2.37882,0,0,1-.249-.42431,2.98217,2.98217,0,0,1-.16552-.62452,4.5127,4.5127,0,0,1-.02881-.77954.14726.14726,0,0,0-.01465-.06616,8.04477,8.04477,0,0,0,2.38086-1.38061,4.83236,4.83236,0,0,0,.89014-1.03516,7.714,7.714,0,0,0,.63867-1.2644,13.49227,13.49227,0,0,0,.77685-2.9607,42.08955,42.08955,0,0,0,.39209-4.26343l.01709-.28906a1.49007,1.49007,0,0,0,.3042.03076,2.4233,2.4233,0,0,0,.39893-.03466,3.70487,3.70487,0,0,0,.77148-.22339,3.84838,3.84838,0,0,0,.83643-.46118A4.16811,4.16811,0,0,0,40.729,28.731a4.99914,4.99914,0,0,0,.36182-.82178,5.48278,5.48278,0,0,0,.21875-.85938,5.73508,5.73508,0,0,0,.03174-1.71215,4.23628,4.23628,0,0,0-.4209-1.38794,2.23179,2.23179,0,0,0-.831-.91895,1.5638,1.5638,0,0,0-.54786-.19507,1.60985,1.60985,0,0,0-.23388-.01733,1.90278,1.90278,0,0,0-.28516.02344,5.11313,5.11313,0,0,0,.14063-.62989c.04394-.26147.0791-.52929.11035-.86962.05078-.55347.07275-1.12964.06836-1.761a28.80026,28.80026,0,0,0-.27051-3.51294c-.06836-.51758-.15137-1.11939-.27-1.70606a15.03811,15.03811,0,0,0-.4751-1.762,15.93323,15.93323,0,0,0-.6748-1.67114l-.01026-.021c-3.60742-3.21631-7.72656-4.33691-13.63965-4.11841-2.41992.08936-6.79052.2356-9.73583,1.59668.08447.04444.16894.08912.25439.1294l-.15967.01514c-.13281.02368-.26709.04736-.3999.06933-.05566.00952-.11182.01782-.168.02735A4.17992,4.17992,0,0,0,11.25,12.75a4.77021,4.77021,0,0,1-.34766,2.26147c-.06982.31568-.14111.63135-.207.94751-.17822.85914-.31006,1.6482-.40234,2.41016a14.95112,14.95112,0,0,0-.11182,2.45361A10.4688,10.4688,0,0,0,10.291,21.981c.03027.19458.06836.3872.11377.58008a5.863,5.863,0,0,0,.17529.57812.20137.20137,0,0,0,.01513.04,1.88827,1.88827,0,0,0-.28808.05615,2.79661,2.79661,0,0,0-.64063.25928,3.3723,3.3723,0,0,0-1.04541.88745,3.50467,3.50467,0,0,0-.35449.55005,3.71634,3.71634,0,0,0-.272.71582,4.31052,4.31052,0,0,0,.2168,2.85669,5.03869,5.03869,0,0,0,.75732,1.23315,6.07137,6.07137,0,0,0,.48535.51538,5.54561,5.54561,0,0,0,.59863.48047,5.94068,5.94068,0,0,0,1.01465.56739,3.69389,3.69389,0,0,0,.57569.209,2.41319,2.41319,0,0,0,.39257.07251l-.00537.07007a24.6514,24.6514,0,0,0,.186,3.66992,17.03839,17.03839,0,0,0,.34033,1.78955c.061.25513.12988.49658.20361.71948.06739.20679.15088.42481.26172.6836a6.83723,6.83723,0,0,0,3.2085,3.45752,8.56727,8.56727,0,0,0,1.08984.48559,4.58052,4.58052,0,0,1-.02588.81348,2.71924,2.71924,0,0,1-.146.5647,2.03866,2.03866,0,0,1-.22608.39257,1.85077,1.85077,0,0,1-.31982.31812,2.55906,2.55906,0,0,1-.49512.27954l.05615.00073A6.43345,6.43345,0,0,1,15,45.10229c-.374.04908-.75879.0813-1.21094.10279l-.45361.02344c-.35693.01757-.7124.03637-1.06592.05859a14.15364,14.15364,0,0,0-2.99267.46265,6.88651,6.88651,0,0,0-1.376.5686,5.81741,5.81741,0,0,0-1.23486.91211A6.59956,6.59956,0,0,0,5.16846,49.5459a9.70049,9.70049,0,0,0-.52393,1.80932,13.32029,13.32029,0,0,0-.22363,1.98926,14.063,14.063,0,0,0,.05322,1.89136,12.57067,12.57067,0,0,0,.30078,1.772.193.193,0,0,0,.18018.13916.14628.14628,0,0,0,.06152.06153,22.18012,22.18012,0,0,0,5.56592,2.7705,35.18658,35.18658,0,0,0,6.32227,1.52246,44.97962,44.97962,0,0,0,6.26123.4834h.23535l.23535.00147a56.78332,56.78332,0,0,0,6.67285-.39966,49.63279,49.63279,0,0,0,7.08594-1.3645c1.13183-.30664,2.27-.67383,3.38428-1.09155.59619-.22583,1.16406-.458,1.68652-.69166.64111-.28515,1.206-.5664,1.72314-.85937.06641-.03857.13135-.07886.1958-.11987l.043-.02759.0835-.053a.33209.33209,0,0,0,.11621-.06714.22677.22677,0,0,0,.06006-.14209c.04394-.43994.06787-.91138.0874-1.28955l.00391-.083.0083-.15014c.02441-.53784.03613-1.08814.03613-1.63452a20.09608,20.09608,0,0,0-.26221-3.30518A11.41864,11.41864,0,0,0,44.19043,49.17236ZM37.33887,28.88843c.02441-.51123.04638-.99341.06494-1.48584.01221-.34741.022-.69483.02685-1.04395a4.86575,4.86575,0,0,1,.25782-.4209,3.67889,3.67889,0,0,1,.56006-.59985,3.23142,3.23142,0,0,1,1.42773-.69678.11762.11762,0,0,0,.07519-.05688.14775.14775,0,0,0,.01514-.11621.1395.1395,0,0,0-.06592-.07935.11825.11825,0,0,0-.06152-.01611.25775.25775,0,0,0-.04492.00439,3.8424,3.8424,0,0,0-1.52881.68189,2.94921,2.94921,0,0,0-.56641.56762l-.05517.07593-.00733.01734c.002-.22583.002-.45288-.00146-.67823-.00147-.11865-.00293-.23706-.00635-.35546a2.493,2.493,0,0,1,.09668-.26856,2.86926,2.86926,0,0,1,.30225-.51245,3.31979,3.31979,0,0,1,.25976-.29028,3.04151,3.04151,0,0,1,.47461-.29322,2.00111,2.00111,0,0,1,.51123-.1604,1.48959,1.48959,0,0,1,.2251-.01733,1.24418,1.24418,0,0,1,.12939.0061,1.60154,1.60154,0,0,1,.30616.07129,1.68725,1.68725,0,0,1,.29638.16016,2.11621,2.11621,0,0,1,.30371.28662,2.70149,2.70149,0,0,1,.34229.54907,4.2236,4.2236,0,0,1,.292.97192,5.69343,5.69343,0,0,1,.04248,1.41993,5.62082,5.62082,0,0,1-.32178,1.35449,4.82848,4.82848,0,0,1-.52685.98169,4.24017,4.24017,0,0,1-.65723.70679,3.99523,3.99523,0,0,1-.80517.49853,3.80806,3.80806,0,0,1-.80811.25244,2.69129,2.69129,0,0,1-.30078.0315.88823.88823,0,0,1-.0918.00317,2.17209,2.17209,0,0,1-.23193-.01294C37.293,29.86816,37.31689,29.366,37.33887,28.88843ZM12.2085,25.9082a1.48877,1.48877,0,0,0-.22657-.31079,2.23681,2.23681,0,0,0-.34814-.30176,2.9658,2.9658,0,0,0-.32861-.206,2.69819,2.69819,0,0,0-.41016-.169,2.464,2.464,0,0,0-.79688-.12377.18624.18624,0,0,0-.147.05224.15828.15828,0,0,0-.04541.11328.16379.16379,0,0,0,.165.15723l.043-.00147a1.74786,1.74786,0,0,1,.206.011,2.39536,2.39536,0,0,1,.53125.134,2.907,2.907,0,0,1,.52735.29,3.00221,3.00221,0,0,1,.50439.481c.06153.07739.1211.15771.17481.24121a2.3222,2.3222,0,0,1,.144.25537c-.01221.45972-.02637.92237-.04346,1.38477-.01269.35888-.02832.71753-.04443,1.07568l-.01074.29248c-.02686.63965-.05371,1.29-.06934,1.93945-.15771-.05273-.32471-.10644-.48926-.16967a6.30172,6.30172,0,0,1-1.2832-.70191A5.68576,5.68576,0,0,1,9.292,29.437a5.28639,5.28639,0,0,1-.66406-1.05981l.00391.0249A5.151,5.151,0,0,1,8.314,27.36548a4.16965,4.16965,0,0,1-.03955-1.03369,4.53307,4.53307,0,0,1,.2461-1.02857,3.46441,3.46441,0,0,1,.34228-.63208,3.54975,3.54975,0,0,1,.57569-.61841,3.28623,3.28623,0,0,1,.61084-.38818,2.781,2.781,0,0,1,.59716-.1875,2.41508,2.41508,0,0,1,.36426-.02856c.02344,0,.04737,0,.0708.00171a2.7758,2.7758,0,0,1,.39405.24l.00976.00708a2.22788,2.22788,0,0,1,.32422.33105,2.67835,2.67835,0,0,1,.30176.533c.0332.08325.06494.167.09472.25391.001.09838.00245.199.00245.29882C12.21191,25.37793,12.21,25.64307,12.2085,25.9082Zm5.04394,18.52759a2.28422,2.28422,0,0,0,.36426-.84985,3.76962,3.76962,0,0,0,.07422-1.01465,14.24313,14.24313,0,0,0,3.37451.66894.1573.1573,0,0,0,.1543-.15576.161.161,0,0,0-.15381-.15551c-.22412-.02222-.44678-.04737-.668-.0774a12.58089,12.58089,0,0,1-3.15967-.81347,8.18461,8.18461,0,0,1-1.71142-.98316,6.91241,6.91241,0,0,1-.61817-.53686,6.544,6.544,0,0,1-.61719-.699,7.427,7.427,0,0,1-.87451-1.52026,11.41219,11.41219,0,0,1-.71875-2.82959l-.01123-.04419a33.70759,33.70759,0,0,1-.0957-5.56641l.01709-.44531c.0332-.79614.06494-1.592.08056-2.38965.00489-.34277.00489-.68384,0-1.0144l.00879.00024a.2.2,0,0,0,.19-.14844,4.042,4.042,0,0,0,.16259-.86865,7.44208,7.44208,0,0,0,.02246-1.01709c-.01416-.47778-.05761-.96118-.09961-1.42871-.019-.21362-.03808-.427-.05517-.64038-.0293-.37036-.04443-.67676-.04834-.96338-.00537-.32568.01807-.65552.04053-.97388l.00293-.05127c.05371-.77783.123-1.48461.2124-2.1582h.001a15.09142,15.09142,0,0,1,.69776-3.04516.11867.11867,0,0,0-.00147-.083l.148.001a3.8756,3.8756,0,0,0,.76758-.11254l-.062.05053a2.0115,2.0115,0,0,0-.18115.25611.845.845,0,0,0-.1211.29223.56165.56165,0,0,0,.00782.24488A.50685.50685,0,0,0,14.5,15.572a.94836.94836,0,0,0,.3374.21265,2.27668,2.27668,0,0,0,.437.11548,5.17189,5.17189,0,0,0,.56934.0603c.16113.00952.32227.01269.4834.01269.23681,0,.47558-.00781.71435-.019.32569-.01562.65186-.03931.97754-.0647l.20557-.01733c.1123-.00781.22607-.01733.33984-.02832.26026-.02686.53369-.06323.85889-.11694a12.65951,12.65951,0,0,0,3.20557-1.01319,10.717,10.717,0,0,0,1.623-.9414,1.15615,1.15615,0,0,0-.08838.36255.59685.59685,0,0,0,.15723.47607.672.672,0,0,0,.47363.16211h.0044a1.75805,1.75805,0,0,0,.29638-.02857,2.84958,2.84958,0,0,0,.35352-.0852,6.54655,6.54655,0,0,0,.73877-.27686c.24561-.1062.4917-.22558.77686-.37475.313-.16382.5874-.31909.83935-.47388a1.7594,1.7594,0,0,0,.03027.323,1.96732,1.96732,0,0,0,.13868.46045.71658.71658,0,0,0,.22754.28589.56473.56473,0,0,0,.32763.105.88647.88647,0,0,0,.35547-.08887,2.18283,2.18283,0,0,0,.3833-.21509c.1294-.085.25391-.18017.37744-.27417l.04737-.0354.21923-.17065.2212-.17041-.02051.07178a1.89321,1.89321,0,0,0,.02539.4121,1.07047,1.07047,0,0,0,.2915.57569,1.23655,1.23655,0,0,0,.55567.3042,2.11272,2.11272,0,0,0,.583.071c.05225,0,.10206-.00171.15235-.00317a5.535,5.535,0,0,0,.85791-.11524,8.81258,8.81258,0,0,0,.90381-.24536,12.766,12.766,0,0,0,1.69336-.68652c.19873-.09717.397-.2.59082-.31006.05029-.02881.10107-.05884.15136-.09033.08936.52954.1626.991.21875,1.40747.15088,1.14014.24659,2.33179.28614,3.54248.0205.58105.02685,1.15527.01709,1.75635-.00293.25244-.00782.50683-.01905.76074-.01074.2417-.02978.48291-.05371.7251-.03955.42749-.08984.85547-.14013,1.282l-.01368.11792c-.06738.57178-.13574,1.1626-.17431,1.74585a11.56234,11.56234,0,0,0-.00489,1.55371,5.31243,5.31243,0,0,0,.26856,1.35791c.03613.10864.08057.21436.12646.31909a1.17288,1.17288,0,0,0,.1377.22974.38924.38924,0,0,0,.12012.09912.26189.26189,0,0,0,.10986.03052.279.279,0,0,0,.11621-.02783.214.214,0,0,0,.0835-.0608l-.03321.49634c-.01464.29175-.02832.573-.04492.84668-.02539.396-.05517.79321-.08691,1.18921q-.04029.549-.082,1.08862c-.064.82691-.14112,1.56812-.23535,2.26783a15.6003,15.6003,0,0,1-.957,3.89819,6.43589,6.43589,0,0,1-.7666,1.37012,5.31582,5.31582,0,0,1-.91064.88818,9.106,9.106,0,0,1-1.915,1.07813,22.51061,22.51061,0,0,1-2.67969.886.15659.15659,0,0,0-.09326.071.16758.16758,0,0,0-.0127.11865.15487.15487,0,0,0,.14942.11377,24.763,24.763,0,0,0,2.46484-.77246,3.43263,3.43263,0,0,0,.11035,1.17676,2.29657,2.29657,0,0,0,1.20508,1.4624c.05469.02759.10742.05371.16113.07812a1.79928,1.79928,0,0,0-.168.20948l-.06006.082c-.10449.1438-.21192.28735-.3208.43115a10.42173,10.42173,0,0,1-.7168.83252,8.2799,8.2799,0,0,1-.88086.78711,8.368,8.368,0,0,1-1.76953,1.03076,10.008,10.008,0,0,1-2.44434.65381,10.94307,10.94307,0,0,1-1.51855.10254,12.02213,12.02213,0,0,1-3.05957-.39649,11.6482,11.6482,0,0,1-1.44629-.49414,9.53639,9.53639,0,0,1-1.9707-1.14111,8.00507,8.00507,0,0,1-1.37159-1.35767,6.66747,6.66747,0,0,1-.55517-.84643A1.643,1.643,0,0,0,17.25244,44.43579Zm17.438.91773c-.07715.13086-.15576.26294-.23877.3916-.12646.19507-.27393.40112-.45068.63183a9.40436,9.40436,0,0,1-1.60254,1.58179,11.66828,11.66828,0,0,1-2.49024,1.44263,12.7251,12.7251,0,0,1-1.46631.51025,12.24723,12.24723,0,0,1-1.50341.3064,13.21768,13.21768,0,0,1-1.63868.10742,12.3616,12.3616,0,0,1-4.75244-.94775A12.48311,12.48311,0,0,1,19.27979,48.75a11.57967,11.57967,0,0,1-1.21631-.81348,11.38862,11.38862,0,0,1-1.00391-.87964,10.15355,10.15355,0,0,1-.87793-.99267c-.15771-.20459-.31885-.43042-.48-.67285l.01563.00781a.14865.14865,0,0,0,.04736-.00952,3.15757,3.15757,0,0,0,.86328-.37036c.03955-.02515.07715-.05054.11523-.0774A7.39428,7.39428,0,0,0,18.188,46.79614,9.10208,9.10208,0,0,0,20.22363,48.209a11.54221,11.54221,0,0,0,4.93848,1.23829c.11328.00146.21191.00317.31152.00317a11.91788,11.91788,0,0,0,2.01758-.177,9.53653,9.53653,0,0,0,2.15186-.65381,8.38857,8.38857,0,0,0,1.09228-.58521,9.1265,9.1265,0,0,0,1.167-.86059,7.41276,7.41276,0,0,0,.98975-1.04346,5.50361,5.50361,0,0,0,.7168-1.17261,3.13246,3.13246,0,0,0,.458.1399c.19971.04809.42676.08911.71338.13086Z"/>
            <path d="M12.303,20.74067c.01937.46632.07148.92867.12518,1.39026.06631.54924.12951,1.09772.19388,1.64539.06631.56424.12356,1.12966.15162,1.69706a8.89044,8.89044,0,0,1-.0395,1.57746q-.01419.09717-.03239.19388c-.02487-.12081-.04577-.24325-.06316-.36564l.00077.00946-.00275-.02446-.00473-.03437.00235.01541c-.07933-.63533-.09789-1.27615-.19505-1.9095a4.95784,4.95784,0,0,0-.24163-.95043,3.53029,3.53029,0,0,0-.507-.918.10981.10981,0,0,0-.14729-.03712.10674.10674,0,0,0-.0391.14649,3.09768,3.09768,0,0,1,.35144.58871l-.00238-.00433a3.93691,3.93691,0,0,1,.25113.918l-.00157-.00671a16.25106,16.25106,0,0,1,.07738,1.78634,8.13027,8.13027,0,0,0,.0691.91448c.019.14018.0446.27955.07464.41694.03473.15834.0837.31154.13267.464a.27494.27494,0,0,0,.50185.06554,2.25357,2.25357,0,0,0,.15519-.3305,3.72087,3.72087,0,0,0,.12319-.3838,5.52692,5.52692,0,0,0,.14176-.86591,9.18288,9.18288,0,0,0-.04739-1.86847c-.03477-.32969-.08689-.65861-.13743-.98673-.05054-.31906-.10856-.63613-.17018-.95358-.05843-.30325-.12159-.60649-.17532-.91132-.05054-.28194-.09631-.56425-.13424-.847.00158.01739.00473.03478.00631.05253-.0205-.1619-.03946-.32258-.0537-.48407a.19469.19469,0,0,0-.05369-.12914.18031.18031,0,0,0-.12793-.05212.18269.18269,0,0,0-.182.18126m-.44186,3.03722.00437.01027-.00437-.01027m.77551,3.08619.002.015-.00436-.034.00238.019"/>
            <path d="M12.70772,25.32018v.17216a.163.163,0,0,0-.13108.15636c-.00635.22586-.00793.45095-.01068.67681a.15944.15944,0,0,0-.03986.10974c.0059.2164.011.43118.02486.646a.1908.1908,0,0,0,.05054.1232.1783.1783,0,0,0,.08095.04541.12635.12635,0,0,0,.036.07464.1281.1281,0,0,0,.08883.0363A.1266.1266,0,0,0,12.932,27.236c-.00158-.12874-.00635-.25667-.01226-.38537l-.0008-.0928c-.00118-.15991-.00275-.31905-.00275-.479-.00158-.32063-.00473-.63965-.00631-.95871a.10109.10109,0,0,0-.20217,0"/>
            <path d="M30.00005,24.83017a5.87859,5.87859,0,0,0-.64915.03473,4.47523,4.47523,0,0,0-.83867.17572,3.03427,3.03427,0,0,0-.72574.338,2.17666,2.17666,0,0,0-.55834.516.10592.10592,0,0,0,.01342.14806.10224.10224,0,0,0,.06793.0245.09739.09739,0,0,0,.07974-.03792,2.13983,2.13983,0,0,1,.218-.24478,2.515,2.515,0,0,1,.44618-.31352,3.37271,3.37271,0,0,1,.74393-.27564c.16267-.03631.30956-.06158.45488-.08054a4.8123,4.8123,0,0,0-.049,1.85265,1.74223,1.74223,0,0,0,.16739.44028,1.14113,1.14113,0,0,0,.29536.3455,1.20369,1.20369,0,0,0,.39722.20136.755.755,0,0,0,.17455.03477c.026.00158.05131.00315.07739.00315a.73012.73012,0,0,0,.39956-.11923.97789.97789,0,0,0,.24086-.23771,1.44121,1.44121,0,0,0,.18243-.33721,3.19633,3.19633,0,0,0,.12951-.40988,4.53293,4.53293,0,0,0,.11216-.841c.00631-.11689.00631-.23536.00316-.35221-.00631-.165-.02527-.32735-.04739-.48884.2219.05131.43118.105.63416.169.14843.049.29217.10108.43433.16072.06081.02568.12162.0537.18163.08176a2.75511,2.75511,0,0,1,.26928.15357c.07739.05175.15163.10545.22586.16229a2.71561,2.71561,0,0,1,.26536.23771.08717.08717,0,0,0,.064.02568.10925.10925,0,0,0,.0837-.03833.10769.10769,0,0,0-.01108-.14767c-.06869-.06792-.13739-.13108-.21082-.1927a2.74858,2.74858,0,0,0-.23063-.1737,3.73414,3.73414,0,0,0-.40037-.23929,4.41861,4.41861,0,0,0-.71231-.28748,6.44068,6.44068,0,0,0-1.71684-.28469c-.07108-.00315-.14059-.00315-.21163-.00315m.3988.66533.00157-.01343a2.04042,2.04042,0,0,1,.09-.39523c.11685.01383.24005.02644.36167.04225a3.47758,3.47758,0,0,1-.02212.52119,1.53788,1.53788,0,0,1-.07738.29932.7729.7729,0,0,1-.05135.08766l-.03316.03987-.00239-.00315-.064.032v-.004l-.06631.00238.00077-.004-.04185-.01581-.03631-.02762.00315-.00238-.02211-.03473A.66947.66947,0,0,1,30.391,25.854a1.77825,1.77825,0,0,1,.00631-.35221l.00158-.00631"/>
            <path d="M17.2225,24.57313a5.63651,5.63651,0,0,0-.76326.05645,4.14645,4.14645,0,0,0-.80272.19469,3.03942,3.03942,0,0,0-.67879.34,2.22421,2.22421,0,0,0-.54569.516.0923.0923,0,0,0-.015.07545.11668.11668,0,0,0,.05212.0754.10258.10258,0,0,0,.05725.01658.13.13,0,0,0,.0936-.05212,2.09,2.09,0,0,1,.41578-.40352,2.77676,2.77676,0,0,1,.53149-.2851,3.99971,3.99971,0,0,1,.95318-.23851c.03315-.00433.0995-.011.16505-.01658a8.47636,8.47636,0,0,0-.17456.84736,3.68493,3.68493,0,0,0-.01892,1.04083,1.814,1.814,0,0,0,.109.42253,1.38155,1.38155,0,0,0,.23613.38614,1.23839,1.23839,0,0,0,.16505.1473,1.03766,1.03766,0,0,0,.19978.11608,1.40946,1.40946,0,0,0,.4928.11887l.05054.00118a.93059.93059,0,0,0,.66177-.27758,1.32078,1.32078,0,0,0,.24361-.34352,2.19478,2.19478,0,0,0,.16347-.432,3.36474,3.36474,0,0,0,.08532-.43474,4.3295,4.3295,0,0,0,.03631-.49474,4.15078,4.15078,0,0,0-.01775-.4541,3.66732,3.66732,0,0,0-.06635-.4201c.15793.05369.31865.11014.47618.17649a3.299,3.299,0,0,1,.29969.14333,2.784,2.784,0,0,1,.415.27641c.06477.05684.14847.13225.229.21162a.11275.11275,0,0,0,.077.03239.09874.09874,0,0,0,.07071-.03.105.105,0,0,0,.03235-.07662.09624.09624,0,0,0-.02919-.07068,3.97587,3.97587,0,0,0-.37474-.33523,2.86721,2.86721,0,0,0-.37037-.25154,3.70753,3.70753,0,0,0-.67956-.30046,5.10145,5.10145,0,0,0-.8047-.19586,5.80094,5.80094,0,0,0-.89434-.08054c-.02487-.00158-.05055-.00158-.07622-.00158m.91056,1.3267-.03162-.00513a.28789.28789,0,0,1-.04027-.01064l-.04739-.03239.00315-.00238a.52215.52215,0,0,1-.03392-.05645.81226.81226,0,0,1-.03477-.13306,1.60017,1.60017,0,0,1,.00671-.33645,2.40363,2.40363,0,0,1,.09437-.42762c.09477.017.19311.03554.29063.05451.002.02409.00631.05054.00946.077a2.3022,2.3022,0,0,1,.00473.511,1.27078,1.27078,0,0,1-.05288.216.64272.64272,0,0,1-.0537.09l-.05373.047-.00118-.00392-.05959.00869Z"/>
            <path d="M29.19139,24.99089a4.432,4.432,0,0,0-.20059.856,4.64924,4.64924,0,0,0-.03478.46749,3.15859,3.15859,0,0,0,.03478.496,1.80945,1.80945,0,0,0,.11843.4201,1.51909,1.51909,0,0,0,.09.18324,1.3857,1.3857,0,0,0,.14374.19582,1.12321,1.12321,0,0,0,.32694.25586,1.34335,1.34335,0,0,0,.20375.08374,1.165,1.165,0,0,0,.25271.05527.9502.9502,0,0,0,.36482-.03.88263.88263,0,0,0,.32064-.18482,1.10741,1.10741,0,0,0,.21794-.27321,1.97506,1.97506,0,0,0,.17058-.38221,3.98767,3.98767,0,0,0,.169-.83871c.01577-.139.02527-.2764.03158-.41537.01108-.20847.019-.41541.02212-.62389a.10109.10109,0,0,0-.20217,0c-.00157.18482-.0063.37118-.02527.556q-.019.18243-.04265.36487l.00473-.03162a4.18152,4.18152,0,0,1-.24717,1.00808,1.73567,1.73567,0,0,1-.17924.31393c.00788-.0095.01419-.019.02207-.02685a1.2,1.2,0,0,1-.15793.16505.741.741,0,0,1-.135.07816.88233.88233,0,0,1-.13581.03635,1.05981,1.05981,0,0,1-.1769-.00081,1.31577,1.31577,0,0,1-.26217-.07266A1.22657,1.22657,0,0,1,29.677,27.529a1.16269,1.16269,0,0,1-.16739-.16821,1.34675,1.34675,0,0,1-.1469-.26022,1.96928,1.96928,0,0,1-.1082-.43632,3.33092,3.33092,0,0,1,.01658-.81732l-.00315.011a4.56054,4.56054,0,0,1,.18955-.79443.13806.13806,0,0,0-.09716-.169.1382.1382,0,0,0-.169.09635m.48645,2.53893.02054.01657-.02054-.01657"/>
            <path d="M29.21982,25.08445A6.45068,6.45068,0,0,0,29.08,26.95016a1.63293,1.63293,0,0,0,.29771.81457,1.06758,1.06758,0,0,0,.33325.28271,1.21477,1.21477,0,0,0,.50857.13149.85005.85005,0,0,0,.18875-.01419.92.92,0,0,0,.19428-.0537,1.06127,1.06127,0,0,0,.34748-.23378,1.54379,1.54379,0,0,0,.139-.17055,1.68642,1.68642,0,0,0,.11374-.18955,2.42333,2.42333,0,0,0,.17374-.45014,4.57422,4.57422,0,0,0,.16028-.995c.01027-.15321.01581-.30641.01423-.45961-.00239-.06635-.00554-.13266-.01027-.199-.00315-.05726-.011-.11374-.01419-.17059a.11057.11057,0,0,0-.22113,0c0,.05685-.00554.11333-.0095.17059-.00631.079-.011.15635-.01735.23532-.01185.18163-.02923.36446-.05369.54609l.00157-.00829a4.22112,4.22112,0,0,1-.25509,1.014,1.74753,1.74753,0,0,1-.21717.37708,1.106,1.106,0,0,1-.12554.12833.94787.94787,0,0,1-.15717.09635.89045.89045,0,0,1-.173.04582,1.07887,1.07887,0,0,1-.214-.00554,1.16254,1.16254,0,0,1-.21559-.05924,1.00912,1.00912,0,0,1-.165-.09477.92329.92329,0,0,1-.13659-.13582,1.29979,1.29979,0,0,1-.13981-.24284,2.14411,2.14411,0,0,1-.12082-.47542l.00158.02333a4.98273,4.98273,0,0,1,.03477-1.26434l-.00477.02684c.02212-.16108.049-.32063.07662-.48172a.10193.10193,0,0,0-.07027-.1232.09577.09577,0,0,0-.02608-.00356.09853.09853,0,0,0-.09869.07266m.20766,2.22739.01184.02842-.01184-.02842m.24878.35694.02685.01974-.02685-.01974"/>
            <path d="M29.22927,26.54385a1.23766,1.23766,0,0,0-.03631.49276,1.1529,1.1529,0,0,0,.07266.26181.98369.98369,0,0,0,.15951.27365.10929.10929,0,0,0,.06158.047.101.101,0,0,0,.07739-.01067.09638.09638,0,0,0,.04581-.06041.09427.09427,0,0,0-.00946-.077,1.02906,1.02906,0,0,1-.07581-.10622,1.09131,1.09131,0,0,1-.08532-.16744.15955.15955,0,0,1,.01108.0241,1.06759,1.06759,0,0,1-.06-.22784,1.00405,1.00405,0,0,1-.00635-.1086c0-.03749.00158-.07618.00473-.11411a1.38044,1.38044,0,0,1,.03635-.17176.10208.10208,0,0,0-.07108-.12477.11763.11763,0,0,0-.02527-.00356.10275.10275,0,0,0-.09951.07306m.15951.43907.00081.00828-.00081-.00828"/>
            <path d="M29.15977,26.53439a.92232.92232,0,0,0-.02685.12753,1.0079,1.0079,0,0,0-.01419.15477,1.09542,1.09542,0,0,0,.03473.27641,1.2016,1.2016,0,0,0,.10108.26217,1.42851,1.42851,0,0,0,.15951.23851.0975.0975,0,0,0,.07108.02843.10112.10112,0,0,0,.07266-.02843.10264.10264,0,0,0,.02843-.07266.10914.10914,0,0,0-.02843-.07108l-.03-.03788a1.19963,1.19963,0,0,1-.06635-.1023,1.00936,1.00936,0,0,1-.06-.1141l.00946.02369c-.01735-.03793-.03158-.077-.04577-.11847a1.08347,1.08347,0,0,1-.03635-.15793.8629.8629,0,0,1-.00788-.12636.75647.75647,0,0,1,.00869-.11923l-.00239.01815a.91181.91181,0,0,1,.02843-.12752.103.103,0,0,0-.07109-.12361.09743.09743,0,0,0-.026-.00315.10249.10249,0,0,0-.09874.07306m.16428.38181a.16027.16027,0,0,0,.00473.026c-.00239-.00865-.00316-.01735-.00473-.026"/>
            <path d="M29.12819,26.56a1.14267,1.14267,0,0,0-.03789.46159,1.08172,1.08172,0,0,0,.02212.12757,1.16424,1.16424,0,0,0,.18478.38694.11732.11732,0,0,0,.06951.0537.11515.11515,0,0,0,.08843-.01068.11678.11678,0,0,0,.04107-.15833,1.60975,1.60975,0,0,1-.09793-.1769l.011.02883a.90909.90909,0,0,1-.04419-.12514.79862.79862,0,0,1-.02608-.11532.70624.70624,0,0,1-.00869-.109.86933.86933,0,0,1,.00473-.12793,1.4145,1.4145,0,0,1,.03635-.169.12819.12819,0,0,0-.08847-.15478.11668.11668,0,0,0-.03077-.004.12752.12752,0,0,0-.124.09239"/>
            <path d="M29.07846,26.54818c-.00712.03162-.01108.06162-.01581.0936a1.64281,1.64281,0,0,0-.01262.197,1.32617,1.32617,0,0,0,.03474.28429,1.28775,1.28775,0,0,0,.09477.27009,1.34622,1.34622,0,0,0,.1919.29852.09492.09492,0,0,0,.07185.03.10246.10246,0,0,0,.10108-.10108.109.109,0,0,0-.03-.07068c-.01424-.01738-.02843-.03477-.04185-.05252l.01577.0209c-.026-.03631-.05131-.073-.07343-.11095a1.16522,1.16522,0,0,1-.0837-.16581.97908.97908,0,0,1-.03477-.109,1.19,1.19,0,0,1-.04027-.19109l.00554.02685a.777.777,0,0,1-.00946-.12951,1.08779,1.08779,0,0,1,.01261-.197l-.00157.01225c.00315-.01738.00631-.03477.00869-.05216a.10463.10463,0,0,0-.00869-.077.10077.10077,0,0,0-.06081-.04618.08841.08841,0,0,0-.02528-.00356.09734.09734,0,0,0-.09869.073m.1832.12.00158-.01419-.00158.01419"/>
            <path d="M29.0508,26.54858a.6072.6072,0,0,0-.01738.0928l-.00947.06554a1.20559,1.20559,0,0,0-.00315.13108c.00158.02964.00473.05964.00946.09082a1.54154,1.54154,0,0,0,.04108.18837,1.42531,1.42531,0,0,0,.11689.26415,1.60278,1.60278,0,0,0,.17055.23929.10114.10114,0,0,0,.14216,0,.103.103,0,0,0,.03-.07189.10931.10931,0,0,0-.03-.07145l-.034-.04108.00712.00987-.01027-.01419-.00554-.00672.00315.00356c-.02288-.03-.04343-.06162-.06316-.092a1.29035,1.29035,0,0,1-.09477-.17492l.00946.02487a1.16,1.16,0,0,1-.04577-.12357.85474.85474,0,0,1-.0395-.17887.75065.75065,0,0,1-.00474-.11095.70679.70679,0,0,1,.0087-.109c.00473-.0205.00946-.041.01342-.06158a.10324.10324,0,0,0-.07108-.12518.12109.12109,0,0,0-.02369-.00275.10022.10022,0,0,0-.09951.07383m.413.88331.00315.00432-.00554-.00748.00239.00316"/>
            <path d="M29.10292,26.57308a1.031,1.031,0,0,0-.03158.12c-.00946.04739-.01423.09951-.019.14689a1.09758,1.09758,0,0,0,.03158.32064,1.12527,1.12527,0,0,0,.12477.29731,1.162,1.162,0,0,0,.20852.25707.10037.10037,0,0,0,.14212-.14176,1.81543,1.81543,0,0,1-.12162-.13662.7962.7962,0,0,1-.0537-.08055.88724.88724,0,0,1-.05527-.105l.00946.02292c-.01577-.03554-.03-.07189-.04262-.11018a1.08079,1.08079,0,0,1-.03711-.1682c-.00316-.032-.00554-.06356-.00554-.09518,0-.03239.00238-.06554.00554-.0987a1.2005,1.2005,0,0,1,.04027-.17455.103.103,0,0,0-.07108-.12514.076.076,0,0,0-.02527-.00356.10561.10561,0,0,0-.09951.07464"/>
            <path d="M29.10688,26.70692a.85738.85738,0,0,0-.02842.12635c-.00477.03158-.00793.06478-.01108.09635a.94632.94632,0,0,0,.12951.54331.88344.88344,0,0,0,.18324.2227.10755.10755,0,0,0,.12793.01581.10933.10933,0,0,0,.049-.0632.10284.10284,0,0,0-.01108-.08054c-.02685-.03473-.05212-.0695-.07739-.10581a1.20908,1.20908,0,0,1-.0932-.16347.918.918,0,0,1-.03316-.09239.80229.80229,0,0,1-.02842-.12163l.00473.03316a.6667.6667,0,0,1-.011-.12478c-.00081-.03235.00077-.06473.00315-.09631v.00158a.67813.67813,0,0,1,.02686-.12793.12149.12149,0,0,0-.0837-.1469.10418.10418,0,0,0-.03082-.00437.1196.1196,0,0,0-.11608.08807"/>
            <path d="M18.764,18.12431c-.53029,0-1.06057.02135-1.57625.0632a10.63808,10.63808,0,0,0-1.84716.289,4.66388,4.66388,0,0,0-.74469.25271,2.20274,2.20274,0,0,0-.552.33879,1.07617,1.07617,0,0,0-.31825.45172.89443.89443,0,0,0-.00712.54924,1.09227,1.09227,0,0,0,.17136.35181.78582.78582,0,0,0,.15874.15244.90407.90407,0,0,0,.22861.11923,1.26318,1.26318,0,0,0,.22469.0537,1.41133,1.41133,0,0,0,.244.01581h.00081a3.12689,3.12689,0,0,0,.58281-.0632,9.41985,9.41985,0,0,0,.91921-.24086l.29928-.08766a4.97647,4.97647,0,0,1,.50505-.12158c.08253-.01343.16623-.01977.25033-.02689l.04144-.00315c.15163-.0142.30483-.0237.458-.03316.18559-.01027.40829-.01658.6314-.01658a9.01142,9.01142,0,0,1,1.81513.17059,7.453,7.453,0,0,1,.76128.21082,5.88792,5.88792,0,0,1,.70051.29852c.14649.077.27163.15085.39446.22667a.14463.14463,0,0,0,.07776.02329.13017.13017,0,0,0,.10621-.0541.134.134,0,0,0,.01464-.11726,2.93519,2.93519,0,0,0,.23059-.64087,1.95087,1.95087,0,0,0,.05527-.59384,1.35988,1.35988,0,0,0-.12477-.48136,1.378,1.378,0,0,0-.35141-.44023,2.21424,2.21424,0,0,0-.54293-.33524,1.45742,1.45742,0,0,0-.22942-.08571,4.532,4.532,0,0,0-.5615-.109,13.3004,13.3004,0,0,0-1.624-.1137c-.13424-.00158-.26258-.0032-.39208-.0032"/>
            <path d="M29.6968,17.54628H29.662c-.33564.00158-.67046.01735-.995.049a5.35959,5.35959,0,0,0-.82682.13739,2.08578,2.08578,0,0,0-.59389.23888,1.15228,1.15228,0,0,0-.353.36289,1.19194,1.19194,0,0,0-.11928.27757,1.27526,1.27526,0,0,0-.05054.35339,1.53887,1.53887,0,0,0,.019.25469,1.33017,1.33017,0,0,0,.08212.29969,1.297,1.297,0,0,0,.1177.23374,2.03978,2.03978,0,0,0,.17055.22428.17642.17642,0,0,0,.1382.07226.15931.15931,0,0,0,.08058.02846,6.59911,6.59911,0,0,1,1.46409-.2768c.20216-.01581.45014-.02487.70366-.02487.3901,0,.80943.02014,1.2825.06275.33875.03162.67992.07266,1.01948.11847.14217.01739.28276.03829.42568.05843l.1374.02054c.06635.0095.13266.019.19982.03158.14527.02648.28982.06.43433.0936l.21163.04856c.34352.0782.60889.12874.86079.16428a3.91473,3.91473,0,0,0,.57334.045c.08292,0,.16581-.00315.24955-.01027a.92524.92524,0,0,0,.57884-.23216.58081.58081,0,0,0,.14136-.25271.82655.82655,0,0,0-.00158-.37118,1.72632,1.72632,0,0,0-.15874-.43235,1.10934,1.10934,0,0,0-.18163-.27762,1.93078,1.93078,0,0,0-.52911-.381,4.94036,4.94036,0,0,0-.78258-.32262,11.61946,11.61946,0,0,0-2.05563-.44221,16.09654,16.09654,0,0,0-2.208-.15163"/>
            <path d="M22.3872,19.9707a.10235.10235,0,0,0-.09474.10779c0,.0691-.00157.13857-.00634.20807l.00319-.02684c-.00635.06986-.01266.13937-.02369.2073a1.74171,1.74171,0,0,1-.05689.24955c-.0237.06437-.04974.12595-.079.18793a.10128.10128,0,1,0,.18163.08965,2.04439,2.04439,0,0,0,.08058-.19231,1.77955,1.77955,0,0,0,.06-.22626,2.51731,2.51731,0,0,0,.04266-.51172.10058.10058,0,0,0-.10189-.09316H22.3872"/>
            <path d="M22.37891,19.52767a.1029.1029,0,0,0-.09473.10658,5.70871,5.70871,0,0,1,.015.614l.00076-.00554-.00117.0146-.0004.01266v-.00631c-.00671.08568-.017.17055-.03.25744a1.84377,1.84377,0,0,1-.06041.248,1.13868,1.13868,0,0,1-.05054.13068.10387.10387,0,0,0,.04658.13582.1012.1012,0,0,0,.13585-.04383,2.52269,2.52269,0,0,0,.09753-.29415,2.07413,2.07413,0,0,0,.05486-.34393,4.48379,4.48379,0,0,0-.0059-.73168.10225.10225,0,0,0-.10189-.09514l-.00554.00081m-.08054.736.0004-.00635.00041-.00906-.00081.01541"/>
          </g>
        </g>
      </g>
    </g>
  </g>
</svg>
