<svg xmlns="http://www.w3.org/2000/svg" xmlns:xlink="http://www.w3.org/1999/xlink" viewBox="0 0 50 60.88915">
  <defs>
    <clipPath id="ac80b264-5113-4644-9b51-9aed6def522b">
      <rect width="50" height="50" rx="5" fill="#fefefe"/>
    </clipPath>
  </defs>
  <title>Recurso 3</title>
  <g id="bc364551-c2a7-44ed-8f40-ea81e793103b" data-name="Capa 2">
    <g id="adf67622-1f16-408f-b85d-b8fa4ab83137" data-name="Capa 1">
      <g>
        <rect width="50" height="50" rx="5" fill="#fefefe"/>
        <g clip-path="url(#ac80b264-5113-4644-9b51-9aed6def522b)">
          <g>
            <path d="M23.3686,23.55129a25.58527,25.58527,0,0,1-.02735,2.81533c-.05773.93151-.161,1.85994-.28413,2.78534.00152-.01673.00455-.03345.00568-.05014-.07407.55157-.15463,1.10317-.23819,1.65326-.06951.46346-.15194.9254-.193,1.3919a3.98721,3.98721,0,0,0,.0137.88284,1.65315,1.65315,0,0,0,.21881.64734,1.27913,1.27913,0,0,0,.44673.42584,2.01027,2.01027,0,0,0,.66858.22605,5.79078,5.79078,0,0,0,.91174.08243c.17474.00568.348.00416.52119.00265.10488-.00152.20819-.00455.313-.00759.13374-.00455.26744-.01521.4027-.02431a.1755.1755,0,0,0,0-.351c-.18844-.00762-.37535-.00875-.56223-.01673-.14891-.00607-.2963-.01217-.44525-.01976-.24881-.0114-.49765-.02773-.74382-.05812a2.91814,2.91814,0,0,1-.67806-.16182,1.42947,1.42947,0,0,1-.24959-.14133,1.13416,1.13416,0,0,1-.1474-.14891,1.20328,1.20328,0,0,1-.11016-.19072,1.81656,1.81656,0,0,1-.10449-.41445,6.11781,6.11781,0,0,1,.06726-1.4618c.11546-.8798.22337-1.75961.31451-2.6425a33.89705,33.89705,0,0,0,.18692-5.2238.1436.1436,0,1,0-.2872,0m-.2811,9.33265.00226.01976Zm1.26387,1.04926.02432.00342-.02432-.00342"/>
            <path d="M28.26191,35.23547c-.0391.04975-.07975.0976-.12269.144l.01027-.01179a3.52231,3.52231,0,0,1-.61428.517,4.06134,4.06134,0,0,1-.89918.41292l.0072-.0019a6.08927,6.08927,0,0,1-1.49487.24048,16.14009,16.14009,0,0,1-2.49962-.158.09761.09761,0,0,0-.01672.1945c.503.06076,1.00744.12915,1.51345.17474a10.22677,10.22677,0,0,0,1.64265.02583,4.43262,4.43262,0,0,0,1.49976-.35862,3.05778,3.05778,0,0,0,.66255-.41636,2.27322,2.27322,0,0,0,.28261-.272,3.81408,3.81408,0,0,0,.25834-.32672.141.141,0,0,0-.03345-.196.13465.13465,0,0,0-.08014-.027.14748.14748,0,0,0-.11588.0589"/>
            <path d="M28.34438,35.08158a.18548.18548,0,0,0-.12919.04862.178.178,0,0,0-.0547.12312.17923.17923,0,0,0,.17171.18536.97253.97253,0,0,1,.20248.00607,1.1033,1.1033,0,0,1,.12156.0384.91532.91532,0,0,1,.13223.08282c.02123.0182.04138.03835.06037.05811a.15532.15532,0,0,0,.22492-.21426.97806.97806,0,0,0-.30393-.24768.77342.77342,0,0,0-.36166-.08243c-.02128,0-.04255.00074-.06379.00187"/>
            <path d="M26.66451,37.40117c-.16564.04862-.3328.08966-.50147.12463l.02583-.00459c-.18991.03649-.38138.06232-.57436.08208-.21426.02128-.43.02887-.64431.03038-.43459.00456-.86763-.02583-1.30071-.05924l.02583.003c-.14588-.01217-.29175-.02431-.43915-.035a.09663.09663,0,0,0-.10067.14891.09279.09279,0,0,0,.05963.041c.58806.04559,1.17612.09725,1.76573.09574a7.08921,7.08921,0,0,0,.86005-.0547,5.311,5.311,0,0,0,.88587-.18843.09676.09676,0,0,0,.0608-.12308.09489.09489,0,0,0-.09231-.06535.10767.10767,0,0,0-.03076.00455"/>
            <path d="M26.13379,3.88915h0l-.05015.00152H26.0335a12.9826,12.9826,0,0,0-2.31768.19944,15.52913,15.52913,0,0,0-2.26489.62758c-.4623.1607-.93108.33847-1.36152.50142l-.10028.038-.10635.041a28.31765,28.31765,0,0,1-2.85941.98009,11.83477,11.83477,0,0,1-1.232.24465,8.04976,8.04976,0,0,1-1.118.07749h-.13067A7.34906,7.34906,0,0,1,13.457,6.48186c-.33353-.06115-.66819-.14775-.93753-.2173l-.06535-.01669-.17132-.04559-.0885-.02431c-.22908-.0608-.43117-.114-.63785-.15957a3.65328,3.65328,0,0,0-.76964-.10523,1.27019,1.27019,0,0,0-.28833.02622,1.00647,1.00647,0,0,0-.31723.128.73421.73421,0,0,0-.20018.19563.99189.99189,0,0,0-.1493.33735,1.55384,1.55384,0,0,0-.04139.38215,3.29816,3.29816,0,0,0,.03948.50983c.03649.22944.08967.45739.12611.60782.05664.22488.11892.44864.19034.66745a10.23158,10.23158,0,0,0,.85285,1.87437,12.10331,12.10331,0,0,0,1.31021,1.88916,23.48807,23.48807,0,0,0-.69251,2.562,21.1137,21.1137,0,0,0-.4118,3,15.81572,15.81572,0,0,0,.079,2.93651,10.84433,10.84433,0,0,0,.28759,1.45153c.0547.20135.12269.41639.20816.65683.05889.16867.12611.3347.199.49765-.019-.00152-.03684-.0019-.05357-.0019a.82571.82571,0,0,0-.24005.03458,2.09562,2.09562,0,0,0-.30163.11814,2.30515,2.30515,0,0,0-.47638.31836,2.5225,2.5225,0,0,0-.43385.47182,3.13423,3.13423,0,0,0-.607,1.79039,3.75435,3.75435,0,0,0,.04559.58732,5.04253,5.04253,0,0,0,.321,1.15713,5.78853,5.78853,0,0,0,.593,1.1085,4.67513,4.67513,0,0,0,.81372.92462,3.24188,3.24188,0,0,0,.90373.56452,2.64166,2.64166,0,0,0,.53262.15992,2.49952,2.49952,0,0,0,.42585.04256c.01443.61466.05963,1.26578.13448,1.98567.05356.51628.117,1.07053.21578,1.62591a12.69553,12.69553,0,0,0,.34531,1.431,8.63157,8.63157,0,0,0,1.28134,2.58855,6.75519,6.75519,0,0,0,.97632,1.06863c.09725.087.19906.17513.30693.25868a3.30009,3.30009,0,0,0-.59794-.03913l-.08052.00152h-.076c-.42471.00645-.88019.03571-1.3938.09005-.44183.049-.8912.114-1.33568.193-.38406.06912-.79928.15879-1.34668.29175a.08782.08782,0,0,0-.046.02657h-.0019a.12032.12032,0,0,0-.10371.08359.12272.12272,0,0,0,.0813.14779,13.66113,13.66113,0,0,1,1.29884.49687,21.1313,21.1313,0,0,1,4.49556,2.78951c.3252.25833.6443.51966.95885.79131-.46423.02964-.92505.04823-1.40636.04936-.50827-.00152-1.04506-.02315-1.47662-.041-.48283-.019-1.04276-.03952-1.57915-.03952-.21427,0-.43.003-.6447.011a10.41089,10.41089,0,0,0-2.90461.51511,6.94411,6.94411,0,0,0-2.10572,1.12372,6.62888,6.62888,0,0,0-1.56741,1.806,8.9678,8.9678,0,0,0-.58841,1.17841c-.10067.24274-.18427.47256-.2553.70243a6.8784,6.8784,0,0,0-.201.8893,8.086,8.086,0,0,0-.08357.86043c-.01482.27429-.01976.57783-.01521.90148.00456.25375.00911.5045.01673.75673l-.003.07406-.00459.076-.00607.1307c-.01214.26441-.0228.52726-.02925.79014a6.28193,6.28193,0,0,0,.04862.99457l.065.07216.05964.06232a20.4168,20.4168,0,0,0,4.69083,2.67514A30.01635,30.01635,0,0,0,16.14052,59.985a43.84989,43.84989,0,0,0,5.81452.778c1.20046.08355,2.44041.12611,3.68491.12611.62489,0,1.29087-.01179,1.97882-.03493,1.80521-.0608,3.6131-.20742,5.3735-.43611.9953-.12915,1.97691-.29176,2.91752-.48322a28.77249,28.77249,0,0,0,2.91068-.748,18.49712,18.49712,0,0,0,3.11393-1.28246,13.17419,13.17419,0,0,0,1.36949-.84072,7.46764,7.46764,0,0,0,.62338-.48509c.10487-.07714.20061-.15614.29331-.23857.02431-.02128.049-.04256.07177-.06535.08927-.076.17474-.15953.25833-.24617a.10858.10858,0,0,0,.03268-.10409.10534.10534,0,0,0,.00646-.05547,3.53308,3.53308,0,0,0,.10787-.83535,8.66511,8.66511,0,0,0-.02432-.94213c-.01672-.26324-.03948-.52613-.06379-.79053-.01824-.2173-.038-.4209-.0608-.62606a18.81083,18.81083,0,0,0-.44712-2.53234,11.06743,11.06743,0,0,0-.92085-2.45632,5.89338,5.89338,0,0,0-1.55714-1.92031,4.47309,4.47309,0,0,0-.6086-.40764,5.76189,5.76189,0,0,0-.92731-.40608,8.506,8.506,0,0,0-2.06163-.40157c-.37038-.0338-.688-.05166-.971-.05469h-.07788c-.22336,0-.44824.01369-.67161.02886l-.12156.00762-.06384.00456c-.32291.02318-.68682.04862-1.03023.04862a5.75166,5.75166,0,0,1-.68154-.03913,2.4943,2.4943,0,0,1-.62528-.16261c-.03342-.01365-.06648-.02734-.09838-.04368.62984-.4912,1.13472-.8802,1.58869-1.21828l.09989-.07446.04443-.03345A44.95217,44.95217,0,0,1,39.815,40.15764a.132.132,0,0,0,.06077-.14132.11367.11367,0,0,0,.01217-.10219.11484.11484,0,0,0-.05508-.06458,8.86552,8.86552,0,0,0-1.18452-.39659,10.11941,10.11941,0,0,0-1.368-.24771,13.00464,13.00464,0,0,0-1.29807-.08547c-.07142-.00151-.14319-.00151-.21461-.00151-.2082,0-.41791.00606-.62606.01824a5.09126,5.09126,0,0,0,.75256-.832,8.6162,8.6162,0,0,0,1.27792-2.58929,11.86342,11.86342,0,0,0,.3457-1.43067c.101-.56336.16564-1.13815.21578-1.62592.07671-.71153.13409-1.48724.17019-2.30551a5.53071,5.53071,0,0,0,2.263-1.488,4.72619,4.72619,0,0,0,1.2578-2.51712,3.24527,3.24527,0,0,0-.07787-1.33872,2.9759,2.9759,0,0,0-.22948-.5478,3.07265,3.07265,0,0,0-.3685-.51741,2.81183,2.81183,0,0,0-.4323-.38367,2.24773,2.24773,0,0,0-.47485-.26631,5.30116,5.30116,0,0,0,.57171-1.19246,9.03954,9.03954,0,0,0,.35711-1.38924,14.53672,14.53672,0,0,0,.19679-3.0296,27.92366,27.92366,0,0,0-.22492-2.84042,15.83725,15.83725,0,0,0-.365-1.80409l-.05319-.21578c-.05473-.2127-.10791-.427-.15957-.64123-.03648-.15043-.07142-.30237-.10635-.45435l-.08247-.354-.01326-.05776a2.02215,2.02215,0,0,1-.0589-.30922.49541.49541,0,0,1,.00911-.093.471.471,0,0,1,.03609-.08282c.03914-.06952.08473-.13639.13032-.20326l.06076-.08624c.0608-.0885.12005-.17929.17778-.2693a1.12226,1.12226,0,0,1,.11359-.14059c.06535-.07142.13677-.13981.20667-.20664l.03494-.03306.0289-.02926c.05166-.04711.10332-.09573.15346-.14587a2.61417,2.61417,0,0,0,.20361-.21613,1.39435,1.39435,0,0,0,.16945-.25721.62992.62992,0,0,0,.06076-.23741.50215.50215,0,0,0-.041-.24009.56641.56641,0,0,0-.05357-.098.70734.70734,0,0,0-.11627-.12841,1.10474,1.10474,0,0,0-.30315-.20435.75023.75023,0,0,0-.26133-.05205,1.12959,1.12959,0,0,0-.28378.03229,2.38195,2.38195,0,0,0-.63785.27542,6.40537,6.40537,0,0,0-.55651.38141l-.1626.12534.033-.06609.00533-.08624c.01521-.313.01786-.5725.00759-.79357a2.74921,2.74921,0,0,0-.10674-.73319,1.44778,1.44778,0,0,0-.05925-.163.85849.85849,0,0,0-.07939-.13751.59251.59251,0,0,0-.2264-.185.46754.46754,0,0,0-.10146-.02622.36773.36773,0,0,0-.08888-.011.67465.67465,0,0,0-.10067.008.59893.59893,0,0,0-.14324.03948.63341.63341,0,0,0-.13864.079A1.072,1.072,0,0,0,37.622,7.258a2.22035,2.22035,0,0,0-.22678.33314,6.38094,6.38094,0,0,0-.473,1.10092,7.37045,7.37045,0,0,0-.95274-.95427c-.39469-.34913-.83955-.70355-1.32087-1.05346a15.39386,15.39386,0,0,0-2.67175-1.56854,13.80824,13.80824,0,0,0-2.8666-.93146,14.4395,14.4395,0,0,0-2.97642-.29518m6.42314,10.26339h0a2.79515,2.79515,0,0,0,.767-.12612,5.05237,5.05237,0,0,0,1.35163-.61011,3.44835,3.44835,0,0,0,.84146-.759l-.049.16373-.01105.1421-.0091.13977a5.3859,5.3859,0,0,0,.01062,1.01129,1.51287,1.51287,0,0,0,.10371.40227.61012.61012,0,0,0,.21543.2553.46123.46123,0,0,0,.23324.06154.86676.86676,0,0,0,.43191-.14475l-.0133.16945c.00762.125.01521.25111.02128.37722.02886.77875-.008,1.56321-.04711,2.30022l-.01517.2872-.00611.10332-.00494.10483-.00187.04789c-.0266.54511-.06,1.22322-.06305,1.86142a12.18513,12.18513,0,0,0,.1789,2.31616,8.2667,8.2667,0,0,0,.29708,1.10509,3.55112,3.55112,0,0,0,.49878,1.0086l-.00074.10865c.03723.91894.07862,1.99364.09725,3.11051.02163,1.175.01327,2.18624-.02583,3.18154-.03878.93034-.09269,1.92868-.22492,2.9278a11.49564,11.49564,0,0,1-.75521,2.88181,7.935,7.935,0,0,1-.96718,1.68746,7.07442,7.07442,0,0,1-1.17688,1.17537l.05278.00529c-.42775.27468-.81216.50641-1.213.72219-.39966.218-.835.42888-1.33152.64392a10.61794,10.61794,0,0,1-2.46356.75672,8.08674,8.08674,0,0,1-.9843.17626l-.079.01062a.15384.15384,0,0,0,.03116.13374.17238.17238,0,0,0,.12572.06076c.08512.00611.16867.00915.25379.00915.09764,0,.19792-.003.2963-.01218a6.935,6.935,0,0,0,1.21677-.22337c.30809-.08282.62567-.1831.944-.29669a3.14793,3.14793,0,0,0,.019.75673,1.92274,1.92274,0,0,0,.26974.778l.05317.0927c-.31684.25755-.6424.5516-.96756.8688-.32023.31151-.65835.67352-1.06369,1.14a23.97359,23.97359,0,0,0-1.86939,2.48939c-.28.42926-.55694.87716-.82209,1.33113-.32633.56071-.61809,1.1537-.83612,1.608-.076.15957-.14895.31914-.22033.47906l-.04031.00225c-.08052.00646-.16182.01331-.242.01331a21.59414,21.59414,0,0,0-1.68632-2.96576,28.24209,28.24209,0,0,0-1.89527-2.54868c-.53371-.63364-1.09823-1.24-1.67758-1.80252a1.68277,1.68277,0,0,0,.11931-.22644,3.31819,3.31819,0,0,0,.28149-.86234,2.97579,2.97579,0,0,0,.04407-.4551,2.19132,2.19132,0,0,0-.02431-.39737,5.8129,5.8129,0,0,0,.70619.234,6.95228,6.95228,0,0,0,1.21793.22337c.09878.0091.19906.01217.29744.01217.08433,0,.171-.00307.25452-.00914a.17205.17205,0,0,0,.16945-.17093.14123.14123,0,0,0-.00645-.04862l-.10181-.01444-.07333-.008c-.071-.00759-.14019-.01517-.20971-.02392-.19259-.01825-.3643-.041-.52083-.071l-.20057-.04139c-.06991-.01217-.13639-.02738-.20322-.04255l-.04143-.00607a11.415,11.415,0,0,1-2.15395-.699c-.49994-.21388-.93263-.42246-1.36112-.65606a8.87743,8.87743,0,0,1-1.19665-.75486l.0091.05283a9.54624,9.54624,0,0,1-1.14079-1.19058,7.92353,7.92353,0,0,1-.9778-1.69769A11.66438,11.66438,0,0,1,14.2369,33.934c-.13106-.99989-.18575-1.99672-.22489-2.92476-.03722-.94326-.04559-1.95412-.02583-3.18154.01634-.95353.05128-1.87134.08815-2.84346l.003-.0771.003-.0927.003-.09725.00606-.15346.00607-.15351.02509-.03606.02583-.04407a3.287,3.287,0,0,0,.163-.33015,4.26861,4.26861,0,0,0,.234-.74836,9.45756,9.45756,0,0,0,.20248-1.78319c.01672-.47447.01521-.944.01369-1.398l-.00152-.41787c0-.26289.003-.52578.01366-.78867a5.03168,5.03168,0,0,1,.0969-.83348,3.76711,3.76711,0,0,1,.28564-.77267c.05318-.10939.10943-.21578.16677-.32365.06877-.12919.13716-.25986.19944-.392a2.9564,2.9564,0,0,0,.23745-.78069,3.63131,3.63131,0,0,0-.00607-1.04809.9517.9517,0,0,0,.32859.041,3.15757,3.15757,0,0,0,1.85158-.65267,5.27934,5.27934,0,0,0,2.12964,1.61568,8.43755,8.43755,0,0,0,1.344.476,8.54759,8.54759,0,0,0,1.46865.26289c.18084.01668.36469.02431.54553.02431a6.98646,6.98646,0,0,0,1.04619-.08208,7.58944,7.58944,0,0,0,1.58678-.44257,9.13343,9.13343,0,0,0,1.431-.73129c.10488-.06531.20971-.13218.31-.20512a3.18757,3.18757,0,0,0,.26783-.22072c.12459-.10787.24312-.22185.36356-.33695l.03493-.03381.16109-.1565-.0589.01327.0794-.04178a4.473,4.473,0,0,1,.653-.51967,1.21055,1.21055,0,0,1,.24733-.106,1.48616,1.48616,0,0,1,.2921-.027,3.27286,3.27286,0,0,1,.75863.12915l.19412.05889.09915.02926.103.033a9.05006,9.05006,0,0,0,.89082.24959,3.30825,3.30825,0,0,0,.677.06232M37.91219,25.306l-.00382-.08624-.00645-.13677c-.01331-.33886-.02852-.67469-.04521-1.012l.09154-.0741.08472-.06952a2.15,2.15,0,0,1,.40495-.24464,1.8601,1.8601,0,0,1,.40764-.11055,1.788,1.788,0,0,1,.18007-.00911,1.9358,1.9358,0,0,1,.21084.01214,2.2127,2.2127,0,0,1,.43382.1197,2.5618,2.5618,0,0,1,.44863.26553,2.82663,2.82663,0,0,1,.42433.4232,2.53783,2.53783,0,0,1,.313.54168,2.47117,2.47117,0,0,1,.1607.5839,3.45327,3.45327,0,0,1-.00455.789,4.03574,4.03574,0,0,1-.27165.99153,4.99333,4.99333,0,0,1-.59069,1.01277,5.74019,5.74019,0,0,1-1.00519.99908,5.52731,5.52731,0,0,1-1.0933.63746l-.09079.03649-.06687.02583c.03949-.36924.05053-.75751.0566-1.1222.01708-.94516.00949-1.942-.02241-3.04706a2.25576,2.25576,0,0,1,.22563-.38484,1.40684,1.40684,0,0,1,.11969-.14207,1.33856,1.33856,0,0,1,.18194-.16221,1.51848,1.51848,0,0,1,.27429-.1565,1.29066,1.29066,0,0,1,.15879-.054,1.07745,1.07745,0,0,1,.188-.03684c.05586-.00607.10146-.00914.147-.01066a.12976.12976,0,0,0,.12992-.12837.13285.13285,0,0,0-.12876-.13335,2.26054,2.26054,0,0,0-.2511.02318,1.393,1.393,0,0,0-.29859.07749,1.55623,1.55623,0,0,0-.25908.1204,1.46037,1.46037,0,0,0-.22679.16451,1.48259,1.48259,0,0,0-.27693.29708M12.02444,23.9874l.00191-.00039.00572-.00529c.05846-.00381.1132-.00685.17053-.00685a1.54155,1.54155,0,0,1,.18805.01062,2.04686,2.04686,0,0,1,.367.09994,2.27587,2.27587,0,0,1,.44863.26705c.05777.04481.11285.09344.166.14054l.03913.0342.03645.03155a.17855.17855,0,0,0,.06648.03874c-.02695.22718-.03761.47486-.04672.72253-.01066.28569-.01976.57133-.02886.85854a.34849.34849,0,0,0-.10258-.215,1.946,1.946,0,0,0-.22072-.23134,1.79313,1.79313,0,0,0-.2739-.20706,1.59057,1.59057,0,0,0-.61085-.21613,1.43862,1.43862,0,0,0-.218-.0156,1.8919,1.8919,0,0,0-.50528.07332.15417.15417,0,0,0-.10675.18389.15647.15647,0,0,0,.147.11242,3.02123,3.02123,0,0,1,.2986-.06683c.05434-.00459.109-.00763.16334-.00763.05625,0,.10943.003.16412.00763a1.48178,1.48178,0,0,1,.321.08927,1.77169,1.77169,0,0,1,.30579.185,1.97406,1.97406,0,0,1,.32746.329,3.35087,3.35087,0,0,1,.27316.45969.14306.14306,0,0,0,.02848.0319c-.0205.83573-.02353,1.63047-.01062,2.42672.0091.50146.02392,1.00137.04862,1.50283l-.14739-.02812-.0836-.0091a2.43878,2.43878,0,0,1-.59642-.16564,3.22731,3.22731,0,0,1-.59641-.34723,4.38647,4.38647,0,0,1-.73316-.73506,5.58863,5.58863,0,0,1-.69671-1.2054,5.32831,5.32831,0,0,1-.34609-1.23614c-.01521-.12572-.02735-.25188-.0319-.381a2.68593,2.68593,0,0,1,.02128-.42623,3.10972,3.10972,0,0,1,.20776-.72977,3.17852,3.17852,0,0,1,.34307-.58727,2.67814,2.67814,0,0,1,.42319-.43083,2.22539,2.22539,0,0,1,.42775-.25487,1.702,1.702,0,0,1,.36508-.09994l-.00078.0023.00113.00113M25.20765,60.51648c-.11285,0-.22415-.00151-.3347-.003l-.17019-.00152.04485-2.38758c.01366-.79018.02735-1.58185.03038-2.37355.00759-1.66349-.04143-3.02275-.15346-4.27787l.041.10675.125.201c.07294.12.144.24009.21426.36014l.0228.03948c.06228.10639.12308.21275.18046.32178-.08551,1.18864-.11588,2.41416-.09916,3.97208.00759.68227.0228,1.36454.041,2.04682l.01369.52729.0137.52881.00758.25982c.00456.22644.01062.45322.0228.67962m.286.00152c.01218-.234.01369-.46991.01521-.70507l.00152-.15992c.003-.2644.003-.52881.00152-.79321v-.2625l-.003-.79812L25.5085,57.757c-.00151-.435-.00264-.85892-.00264-1.28289,0-1.64074.04255-2.88827.13825-4.04463.08247-.09386.16451-.19566.24655-.29747l.038-.04711.1398-.1717c.076-.09422.15195-.188.22944-.28113-.098,1.26542-.15463,2.69719-.18046,4.374-.01175.77649-.01327,1.553-.01175,2.328.00152.39013.003.77875.0091,1.16394.00607.34345.01218.68686.02735,1.02875l-.1584-.00875Z"/>
            <path d="M21.1235,20.17944c-.577,0-1.21147.03455-1.93934.10484-1.09026.10445-2.168.28148-3.36312.48474a.12768.12768,0,0,0-.07675.04862.12442.12442,0,0,0-.07979.08659c-.02583.1064-.05014.21275-.07294.321a3.61658,3.61658,0,0,0-.05166.36924,1.79562,1.79562,0,0,0,.06839.76019.26778.26778,0,0,0,.05547.09725.15143.15143,0,0,0,.08967.03836c.49271-.07979,1.02417-.14856,1.68555-.21656.522-.05469,1.07964-.0976,1.70454-.13067.55576-.03115,1.13055-.04862,1.70947-.05166l.20287-.00077q.30429,0,.6082.00533c.16677.00264.3328.00723.49917.01178l.37457.00949h.00039a.19986.19986,0,0,0,.19069-.17209.12929.12929,0,0,0,.02583-.05279,2.80253,2.80253,0,0,0,.04862-.35481,2.73587,2.73587,0,0,0-.00455-.40005,3.5346,3.5346,0,0,0-.1356-.7423.15.15,0,0,0-.05738-.07974.15994.15994,0,0,0-.09916-.06154,12.43471,12.43471,0,0,0-1.38314-.07446"/>
            <path d="M29.01448,20.14941c.577,0,1.21147.0342,1.93933.10523,1.08987.10371,2.168.28074,3.36313.48435a.12924.12924,0,0,1,.07671.04827.1266.1266,0,0,1,.07978.08659c.02583.10675.05015.21314.07294.3214a3.69508,3.69508,0,0,1,.05166.36924,1.793,1.793,0,0,1-.06838.75976.26315.26315,0,0,1-.05583.09725.15052.15052,0,0,1-.08927.03875c-.49271-.08014-1.02456-.14852-1.68555-.21691-.522-.05469-1.07964-.09725-1.70493-.13067-.55542-.03116-1.13056-.04862-1.70912-.05166l-.20287-.00039q-.30423,0-.60855.005c-.16642.00264-.33241.00719-.49878.01178l-.375.00949a.19985.19985,0,0,1-.19068-.17209.12528.12528,0,0,1-.02587-.05283,2.8,2.8,0,0,1-.04863-.35442,2.69377,2.69377,0,0,1,.00459-.4004,3.51992,3.51992,0,0,1,.13522-.7423.14975.14975,0,0,1,.05777-.07939.15987.15987,0,0,1,.09911-.06154,12.43305,12.43305,0,0,1,1.38319-.07446"/>
            <path d="M36.124,23.74124l-.11436-.00152-.06038.01521-.18691.00152L35.574,23.758c-.1398,0-.27957.00152-.41938.003s-.2781.003-.41786.003h-.1383c-.38141-.00455-.76279-.00455-1.14269-.00455-.33887,0-.67773,0-1.01507-.003q-1.31061-.01145-2.62426-.01218l-.56565-.00152-.5679-.00151q-.59034,0-1.18071.00758l-.82207.00914c-.20816.00152-.41636.00152-.623.00152l-.13374-.003-.1337.003c-.01066.08811-.01673.16564-.0228.24464a11.81677,11.81677,0,0,0,.152,2.34464,9.2074,9.2074,0,0,0,.892,2.70937,7.8753,7.8753,0,0,0,.75369,1.15787,6.28816,6.28816,0,0,0,.971.968,4.69021,4.69021,0,0,0,1.09408.65948,3.791,3.791,0,0,0,1.34478.29937c.04408.00152.08815.003.13218.003a3.77262,3.77262,0,0,0,1.15791-.193A4.12308,4.12308,0,0,0,32.881,31.69a4.26368,4.26368,0,0,0,.66745-.42549,6.52416,6.52416,0,0,0,1.78393-2.24283,8.50313,8.50313,0,0,0,.66407-1.84015c.07446-.30392.13219-.59719.18233-.927.03493-.234.05773-.43611.07294-.64427.01672-.2036.02886-.40876.03493-.6154.00155-.04711.00155-.079.00155-.11095.00152-.06383.003-.10787.003-.15042v-.05622l-.003-.05321h.003c0-.05621-.00152-.09725-.003-.13825,0-.05015,0-.0927-.00307-.13374l-.00607-.05925h.003l-.00607-.04711h.003l-.00607-.03952h.003L36.26993,24.15l.00455-.00152c-.003-.07749-.00758-.155-.01369-.231l-.01366-.12156-.00455-.04863-.00151-.00455-.00308-.003ZM30.21,26.40042c-.29635-.3191-.59872-.63364-.8935-.95426a.09658.09658,0,0,1,.01213-.13673.099.099,0,0,1,.06232-.02128.10344.10344,0,0,1,.07446.03341c.2963.32062.59715.63517.8935.95427a.098.098,0,0,1-.01218.13677.0945.0945,0,0,1-.06076.0228.09957.09957,0,0,1-.076-.035m.25374,1.46184c-.24464-.26289-.50449-.51057-.75672-.76739-.12612-.12763-.25072-.25682-.36772-.39355-.11854-.13526-.231-.27468-.33735-.42055a.10022.10022,0,0,1,.01365-.13713.10647.10647,0,0,1,.06384-.02128.0853.0853,0,0,1,.07293.03494,7.03436,7.03436,0,0,0,.70356.813c.25374.25679.51208.506.75824.76926a.0978.0978,0,0,1-.01214.13638.09287.09287,0,0,1-.0608.02128.10637.10637,0,0,1-.07749-.03493m1.278,2.39933c-1.28706-1.27943-2.59843-2.53914-3.75785-3.93866a.09815.09815,0,0,1,.076-.15953.09439.09439,0,0,1,.07446.03494c1.1579,1.39951,2.46928,2.65957,3.75633,3.93866a.09675.09675,0,0,1-.01218.13677.105.105,0,0,1-.06687.02279h-.00607a.10276.10276,0,0,1-.06379-.035m-1.36459-.48777a6.59742,6.59742,0,0,0-.58043-.52881.0978.0978,0,0,1-.00914-.13673.09429.09429,0,0,1,.07294-.03346.10056.10056,0,0,1,.06383.0228,6.95443,6.95443,0,0,1,.579.52881.09831.09831,0,0,1,.03341.06687.09451.09451,0,0,1-.02279.07142.10417.10417,0,0,1-.07675.03341.08141.08141,0,0,1-.06-.02431"/>
            <path d="M22.80676,23.73248l-.114-.00151-.06076.01521-.18692.00151-.18843.00152c-.13977,0-.27958.00152-.41939.003s-.27805.003-.41786.003h-.13829c-.38138-.00455-.7628-.00455-1.1427-.00455-.33886,0-.67772,0-1.015-.003q-1.31289-.01137-2.62425-.01213l-.5653-.00156-.5683-.00152q-.59033,0-1.1807.00763l-.822.0091c-.2082.00152-.41639.00152-.623.00152l-.13374-.003-.1337.003c-.01062.08815-.01673.16564-.02279.24464a11.81724,11.81724,0,0,0,.15194,2.34468,9.20869,9.20869,0,0,0,.892,2.70933,7.87957,7.87957,0,0,0,.7537,1.15791,6.2917,6.2917,0,0,0,.971.968,4.70293,4.70293,0,0,0,1.09407.65947,3.79163,3.79163,0,0,0,1.34478.29934c.04408.00152.08815.003.13223.003a3.76128,3.76128,0,0,0,1.15787-.193,4.13915,4.13915,0,0,0,.617-.26289,4.26408,4.26408,0,0,0,.66707-.42545,6.52094,6.52094,0,0,0,1.78393-2.24284,8.50373,8.50373,0,0,0,.66407-1.84018c.07445-.30354.13218-.5972.18232-.92692.035-.234.05777-.43611.07294-.6443.01673-.20361.02886-.40877.035-.61541.00151-.0471.00151-.079.00151-.11055.00152-.06419.003-.10826.003-.15082v-.05621l-.003-.05317h.003c0-.05625-.00151-.09726-.003-.1383,0-.05014,0-.09269-.003-.1337l-.0061-.05928h.00307L22.9587,24.237h.003l-.00607-.03948h.003l-.00606-.05625.00455-.00152c-.003-.07749-.00759-.155-.01366-.23095l-.01369-.12156-.00455-.04863-.00152-.00459-.003-.003Zm-4.132,6.57964c-1.52066-1.72013-3.1314-3.35818-4.58713-5.13605a.09819.09819,0,0,1,.01369-.13677.09293.09293,0,0,1,.06232-.02279.09659.09659,0,0,1,.07445.035c1.45418,1.77786,3.06644,3.41743,4.586,5.136a.09674.09674,0,0,1-.01213.13677.09558.09558,0,0,1-.0608.02276.10105.10105,0,0,1-.07636-.03494M16.90939,26.144q-.32361-.3693-.63057-.75066a.09814.09814,0,0,1,.076-.15957.09.09,0,0,1,.07445.035c.20512.25527.41484.50446.6291.75063a.09861.09861,0,0,1-.01218.13716.09628.09628,0,0,1-.06076.0224.09966.09966,0,0,1-.076-.03493m.74914,1.73076c-.60629-.68379-1.20194-1.37785-1.84625-2.02671a.09886.09886,0,0,1,.0137-.13713.08879.08879,0,0,1,.06076-.02279l.01066.00152a.09985.09985,0,0,1,.06535.03493c.64427.64886,1.23839,1.3433,1.84621,2.02558a.098.098,0,0,1-.01214.13673.09557.09557,0,0,1-.06232.0228.10453.10453,0,0,1-.076-.03493m-.90412,1.27184a.10207.10207,0,0,1-.06076-.03952c-.03042-.03493-.0608-.06987-.0927-.10484-.19754-.21729-.4027-.42545-.62-.623a.09737.09737,0,0,1,.06383-.17174.09355.09355,0,0,1,.06384.02431,10.19282,10.19282,0,0,1,.74607.76435.09637.09637,0,0,1-.02583.13522.095.095,0,0,1-.05431.01751l-.02015-.0023"/>
            <path d="M22.44966,25.43857a.2196.2196,0,0,0-.09878.29176.21739.21739,0,0,0,.29024.09876,2.54332,2.54332,0,0,1,.35446-.15766,3.19023,3.19023,0,0,1,.66022-.12421,7.0631,7.0631,0,0,1,1.67415.14055c.253.05205.50259.11207.74992.18388.24465.07142.48778.15195.72938.23247a.31259.31259,0,0,0,.4057-.35707.29579.29579,0,0,0-.13067-.1945,5.48415,5.48415,0,0,0-.49995-.22795c-.18839-.07446-.38138-.13522-.57436-.19147a5.97924,5.97924,0,0,0-1.25516-.22337c-.08508-.00568-.17058-.00875-.256-.00875a4.36388,4.36388,0,0,0-2.04911.53756m2.91639.25605.027.00533-.027-.00533"/>
            <path d="M23.36673,24.71223a4.532,4.532,0,0,0-1.09143.41331.26912.26912,0,1,0,.23706.48322,2.22584,2.22584,0,0,1,.21994-.09915,2.1714,2.1714,0,0,1,.42546-.08282,7.653,7.653,0,0,1,1.76308.185c-.03952-.00759-.08057-.01673-.12-.02432.13981.02735.28109.05622.4209.08356l-.12-.02279c.48626.09573.96644.234,1.45764.307a.34984.34984,0,0,0,.21843-.6382,5.06085,5.06085,0,0,0-1.03176-.43763,5.92549,5.92549,0,0,0-1.19552-.24464c-.1155-.01066-.23173-.016-.348-.016a3.75157,3.75157,0,0,0-.83573.09344m-.15389.70962-.03758.00342Z"/>
            <path d="M37.39209,24.047c-.24161.21882-.46194.46043-.70355.67924a7.699,7.699,0,0,1-.82356.64582.17924.17924,0,0,0,.05924.30541.17147.17147,0,0,0,.13678-.0091c.28529-.18844.56829-.3799.84483-.58351.15047-.10939.29786-.22488.44071-.34493a2.92865,2.92865,0,0,0,.38593-.39052.22863.22863,0,0,0-.01518-.27961.23381.23381,0,0,0-.17625-.07823.22078.22078,0,0,0-.14895.05543"/>
            <path d="M37.44908,23.79441c-.42546.27351-.8236.58806-1.243.86919l.05015-.0319c-.155.10181-.31152.19754-.47408.28565a.23547.23547,0,0,0-.10639.3119.23309.23309,0,0,0,.31151.106,18.52753,18.52753,0,0,0,1.71255-1.16094.22944.22944,0,0,0,.05621-.27467.23507.23507,0,0,0-.13222-.11585.24772.24772,0,0,0-.08014-.0133.17643.17643,0,0,0-.0946.02392"/>
            <path d="M37.49393,23.82709c-.32824.15805-.64734.33431-.968.506s-.6443.33887-.97554.48778a.18246.18246,0,0,0,.15953.3282c.33279-.147.65948-.31.98317-.4756q.48548-.25073.96947-.49994a.1966.1966,0,0,0,.08963-.2583.19422.19422,0,0,0-.174-.10791.18569.18569,0,0,0-.08434.01976"/>
            <path d="M25.87965,38.30871l-.03684.00307-.2325.03571c-.163.02545-.32517.05128-.48929.06761-.11243.0095-.253.01708-.39317.01708a3.32527,3.32527,0,0,1-.53869-.04139l-.04178-.00381.00074-.00377a.25967.25967,0,0,0-.044-.00459.11782.11782,0,0,0-.05738.01408.13212.13212,0,0,0-.06232.07671.13925.13925,0,0,0,.01066.10028.08323.08323,0,0,0-.014.0498,1.98733,1.98733,0,0,0,.10219.56677,1.2584,1.2584,0,0,0,.24994.42207.93207.93207,0,0,0,.32482.23364.90284.90284,0,0,0,.36014.07368.94933.94933,0,0,0,.72327-.37115,1.51217,1.51217,0,0,0,.28378-.99947.503.503,0,0,0-.00187-.12082.15521.15521,0,0,0-.06535-.09344.14627.14627,0,0,0-.07827-.02206"/>
          </g>
        </g>
      </g>
    </g>
  </g>
</svg>
