<svg xmlns="http://www.w3.org/2000/svg" xmlns:xlink="http://www.w3.org/1999/xlink" viewBox="0 0 50 60.02441">
  <defs>
    <clipPath id="fd364c21-1213-45a2-b6d3-374847bbe9d4">
      <rect width="50" height="50" rx="5" fill="#fefefe"/>
    </clipPath>
  </defs>
  <title>Recurso 25</title>
  <g id="ae159005-f262-4c94-a28c-9936b92c12fd" data-name="Capa 2">
    <g id="bc45bd55-6037-4bd9-bff3-fbcfa79f3833" data-name="Capa 1">
      <g>
        <rect width="50" height="50" rx="5" fill="#fefefe"/>
        <g clip-path="url(#fd364c21-1213-45a2-b6d3-374847bbe9d4)">
          <g>
            <path d="M31.6461,19.77168a5.83308,5.83308,0,0,0-.87338.07225c-.14531.02248-.29062.05567-.43274.092-.13112.03158-.25747.07424-.387.11333a.26475.26475,0,0,0-.06789.45486.25681.25681,0,0,0,.19266.05568c.14689-.03635.29693-.05883.447-.08212.17373-.02842.35062-.049.52594-.0695a9.24611,9.24611,0,0,1,1.06566-.051l-.02644-.00117.05094.00158h.00748c.366.00986.73166.03238,1.09454.0754a8.08042,8.08042,0,0,1,1.08184.22,6.812,6.812,0,0,1,.69021.23649,5.71231,5.71231,0,0,1,.66847.3309,3.70906,3.70906,0,0,1,.65346.50184.12323.12323,0,0,0,.15162-.19428,5.55865,5.55865,0,0,0-1.33774-.95589,6.89241,6.89241,0,0,0-.83075-.35815,7.83164,7.83164,0,0,0-.88918-.25427,7.46082,7.46082,0,0,0-.856-.14883,7.33832,7.33832,0,0,0-.80706-.03991c-.04068,0-.081.0004-.12162.00081"/>
            <path d="M32.14834,20.35762h-.00748l-.0245-.00041.032.00041"/>
            <path d="M24.53617,23.3975a.1042.1042,0,0,0-.09716.10585,9.951,9.951,0,0,1,.01739,1.90629l.00081-.00514a15.81739,15.81739,0,0,1-.26418,1.744c-.0596.29693-.12911.59188-.20059.886-.03631.14847-.07262.29653-.11014.4454-.03792.14685-.07108.29532-.11923.44023a3.92892,3.92892,0,0,1-.17139.35891.98466.98466,0,0,0-.06789.17058.52723.52723,0,0,0-.01581.1832.68375.68375,0,0,0,.05212.21009,1.586,1.586,0,0,0,.13072.257,1.256,1.256,0,0,0,.3281.3668,2.06912,2.06912,0,0,0,.95117.35657,2.29183,2.29183,0,0,0,.96026-.05964.206.206,0,0,0,.13266-.25941.20127.20127,0,0,0-.09951-.11846.2098.2098,0,0,0-.1595-.01383l-.07068.01581a2.406,2.406,0,0,1-.55319.02329,2.58182,2.58182,0,0,1-.58081-.12478,1.93452,1.93452,0,0,1-.30521-.15675,1.26759,1.26759,0,0,1-.17411-.15793,1.75217,1.75217,0,0,1-.17454-.27954.7383.7383,0,0,1-.03316-.09834.362.362,0,0,1-.002-.04617.61242.61242,0,0,1,.01779-.075c.02131-.05289.04383-.10343.06789-.154.03319-.07423.06121-.15.08846-.22585a2.70382,2.70382,0,0,0,.08212-.31274c.03158-.15162.06279-.30162.09437-.45167.11373-.54175.218-1.08661.29851-1.63466a14.9986,14.9986,0,0,0,.14725-1.52093,10.79431,10.79431,0,0,0-.06554-1.67927.10185.10185,0,0,0-.0995-.096h-.0055m-.07622,1.979-.00157.02014.00157-.02014m-.7,3.55438-.01107.03081.01107-.03081m.18951.77112.00513.013-.00513-.013m.61477.57215.0241.00829Z"/>
            <path d="M32.91987,23.32169H32.861a3.84583,3.84583,0,0,0-1.64728.39882,4.05831,4.05831,0,0,0-1.43251,1.14265.13106.13106,0,0,0-.00117.17927.138.138,0,0,0,.09477.03712.1085.1085,0,0,0,.08527-.03712,3.22575,3.22575,0,0,1,1.18927-.93575,4.60981,4.60981,0,0,0-.07383.60134,4.10623,4.10623,0,0,0,.00946.59265,2.22961,2.22961,0,0,0,.23415.84811,1.23282,1.23282,0,0,0,.45012.48805.99075.99075,0,0,0,.50738.13856q.03493,0,.06991-.00234a1.14688,1.14688,0,0,0,.29216-.05847,1.27292,1.27292,0,0,0,.30207-.14923,1.724,1.724,0,0,0,.50027-.52081,2.28425,2.28425,0,0,0,.30085-.794,3.20247,3.20247,0,0,0,.02054-1.01675c-.011-.0904-.02685-.17729-.04423-.26571l.05292.02567.05843.02171a3.25541,3.25541,0,0,1,.69692.40667,3.788,3.788,0,0,1,.57252.58873,4.76894,4.76894,0,0,1,.26689.39878.2481.2481,0,0,0,.21166.12239.2608.2608,0,0,0,.06275-.00829l.05884.00157a.774.774,0,0,0,.135-.011,1.0549,1.0549,0,0,0,.3076-.09356,2.685,2.685,0,0,0,.552-.34946.149.149,0,0,0,.045-.20139.16284.16284,0,0,0-.1299-.06788.12093.12093,0,0,0-.07343.02446,1.74486,1.74486,0,0,1-.21559.13544,1.81945,1.81945,0,0,1-.35774.11135l-.10067.01933-.10108.019a.67911.67911,0,0,0-.03987-.09594,1.13693,1.13693,0,0,0,.15793-.08451,1.265,1.265,0,0,0,.16779-.13027c.03-.02648.06045-.05531.08729-.08373a1.25826,1.25826,0,0,0,.11726-.14252.1295.1295,0,0,0,.02923-.08334.11809.11809,0,0,0-.12122-.10977.10134.10134,0,0,0-.08215.03833c-.02369.03316-.047.06631-.07383.09752a1.15725,1.15725,0,0,1-.107.10856c-.04581.03951-.09319.07545-.14175.11018a1.07539,1.07539,0,0,1-.11531.06635c-.10658-.14018-.20095-.27284-.32811-.42567a2.77582,2.77582,0,0,0-.69887-.58671,3.20253,3.20253,0,0,0-.81773-.3463,3.41374,3.41374,0,0,0-.87418-.122m-.3905.79841-.0004-.002a1.39168,1.39168,0,0,1,.09437-.27441c.0095-.017.019-.036.02685-.05333.135.004.27247.01184.411.02765a.35006.35006,0,0,1,.04067.00631l.00514.0245.00473.01617v-.0004a1.85223,1.85223,0,0,1-.01775.28707.84872.84872,0,0,1-.04856.1536.75911.75911,0,0,1-.05649.08765.52263.52263,0,0,1-.075.07028.45593.45593,0,0,1-.06869.03711.65462.65462,0,0,1-.06873.017.54641.54641,0,0,1-.06631-.00279.22931.22931,0,0,1-.0541-.01694.33439.33439,0,0,1-.047-.02806l-.03712-.04067a.509.509,0,0,1-.03121-.06l-.02131-.08847a.83493.83493,0,0,1,.00869-.16027h.00117Z"/>
            <path d="M18.64389,23.15745a3.2289,3.2289,0,0,0-1.13832.19784,2.66134,2.66134,0,0,0-1.06648.7245c-.04225-.01262-.08725-.02487-.13189-.03906a1.68368,1.68368,0,0,1-.16463-.07067,1.55594,1.55594,0,0,1-.15-.08491,1.26293,1.26293,0,0,1-.15239-.11531.09049.09049,0,0,0-.05963-.02131.11227.11227,0,0,0-.08883.04581.11632.11632,0,0,0-.01658.08054.11088.11088,0,0,0,.04262.06712c.06634.0549.13269.10581.20374.15477a1.75,1.75,0,0,0,.18.09635,1.10872,1.10872,0,0,0,.19427.07464,1.25981,1.25981,0,0,0-.12712.1836l-.03121.00117a.70427.70427,0,0,1-.22306-.04342,2.24726,2.24726,0,0,1-.21009-.09041c-.094-.049-.16819-.09121-.24243-.137a.15584.15584,0,0,0-.0845-.0241.1366.1366,0,0,0-.11527.06.1501.1501,0,0,0-.02171.1137.13.13,0,0,0,.058.08608l.06238.03986c.12635.0786.25193.15757.38459.2227a1.84,1.84,0,0,0,.248.10464,1.07688,1.07688,0,0,0,.10977.02685.63216.63216,0,0,0,.06514.01225.48039.48039,0,0,0,.07541.0063.3676.3676,0,0,0,.05842-.00473.16674.16674,0,0,0,.11373-.03554.365.365,0,0,0,.0987-.06829,4.1425,4.1425,0,0,1,.43986-.40828,3.26721,3.26721,0,0,1,.65148-.36761c-.01576.17532-.02919.37117-.03077.58991a4.31951,4.31951,0,0,0,.09041.94882,2.58684,2.58684,0,0,0,.13581.43828,1.57059,1.57059,0,0,0,.21049.36837,1.12915,1.12915,0,0,0,.2981.27167,1.07014,1.07014,0,0,0,.39761.13937.9751.9751,0,0,0,.16266.01382,1.61084,1.61084,0,0,0,.32378-.03792,1.20461,1.20461,0,0,0,.45842-.20058,1.57991,1.57991,0,0,0,.54607-.81891,2.81957,2.81957,0,0,0,.10581-.53027,3.15673,3.15673,0,0,0,.00946-.55279,3.28248,3.28248,0,0,0-.07265-.51567l-.0146-.04775a3.69178,3.69178,0,0,1,.73324.43077,3.14809,3.14809,0,0,1,.51724.52355c.05212.07108.10108.14333.14847.22072a.20582.20582,0,0,0,.1745.09873.197.197,0,0,0,.09752-.02608.20236.20236,0,0,0,.0936-.12554.19068.19068,0,0,0-.02053-.14571,3.877,3.877,0,0,0-.50779-.65464,3.77763,3.77763,0,0,0-.64517-.52792,4.03758,4.03758,0,0,0-2.17363-.64833m.51527,1.01594a1.19707,1.19707,0,0,1,.08689-.263c.02842-.05487.058-.107.09-.16072l.0395.00991c.03473.00671.0695.01261.10423.02013a2.2906,2.2906,0,0,1,.0537.289.96062.96062,0,0,1-.00946.18991.937.937,0,0,1-.02924.09752.61191.61191,0,0,1-.04738.07108.257.257,0,0,1-.03712.03437.455.455,0,0,1-.04815.026l-.04108.01342v-.00392a.391.391,0,0,1-.04027-.00316l-.04581-.02053-.04027-.03829-.02762-.05293c-.00631-.0241-.01107-.04937-.01581-.07464a.843.843,0,0,1,.00789-.13423Z"/>
            <path d="M39.72344,27.12881a.26059.26059,0,1,0,.26059-.261.26289.26289,0,0,0-.26059.261"/>
            <path d="M40.48312,26.77305a.19741.19741,0,1,0,.19743-.19743.1992.1992,0,0,0-.19743.19743"/>
            <path d="M41.17252,26.29013a.10108.10108,0,1,0,.10108-.10108.10151.10151,0,0,0-.10108.10108"/>
            <path d="M11.34915,52.7593a.40432.40432,0,1,0,.40432-.40432.4072.4072,0,0,0-.40432.40432"/>
            <path d="M24.20054,54.57793a.40432.40432,0,1,0,.40432-.40432.40714.40714,0,0,0-.40432.40432"/>
            <path d="M38.85476,54.14123a.40432.40432,0,1,0,.40432-.40432.40717.40717,0,0,0-.40432.40432"/>
            <path d="M15.2064,46.77347a.40432.40432,0,1,0,.40432-.40432.40714.40714,0,0,0-.40432.40432"/>
            <path d="M39.1434,52.71426a.1595.1595,0,0,0-.15477.11689.94176.94176,0,0,0-.04739.12635.89732.89732,0,0,0-.03.1295,1.314,1.314,0,0,0-.019.30482,2.12289,2.12289,0,0,0,.04266.30918c.02211.11685.05369.23415.08527.34942a.11631.11631,0,0,0,.14058.08054.11457.11457,0,0,0,.08014-.08725.15957.15957,0,0,0,.15044-.11649,1.794,1.794,0,0,0,.04581-.74387,1.90144,1.90144,0,0,0-.04423-.21162A1.14787,1.14787,0,0,0,39.325,52.798a.15217.15217,0,0,0-.09792-.07581.41.41,0,0,0-.07225-.00793H39.1434"/>
            <path d="M39.87623,53.27655a.8021.8021,0,0,0-.23531.07261.87353.87353,0,0,0-.20689.15005,1.8529,1.8529,0,0,0-.22428.26022.2123.2123,0,0,0-.02527.092.17994.17994,0,0,0,.0537.126.17478.17478,0,0,0,.12635.05406.17072.17072,0,0,0,.0363-.00393.19262.19262,0,0,0,.2527.05766,1.89947,1.89947,0,0,0,.33482-.199.97055.97055,0,0,0,.27166-.32535.19049.19049,0,0,0,.019-.14374.18607.18607,0,0,0-.12951-.12991c-.03634-.00432-.07265-.01063-.109-.01577-.019-.0008-.03712-.00157-.05491-.00157a1.0392,1.0392,0,0,0-.10937.00671"/>
            <path d="M39.41939,53.92564a.179.179,0,0,0-.05369.12834l.0004.00986a.18049.18049,0,0,0-.03829.015.1535.1535,0,0,0-.05373.20693,1.31905,1.31905,0,0,0,.15954.22307.91857.91857,0,0,0,.25743.18639.88652.88652,0,0,0,.29536.08959.92044.92044,0,0,0,.16541.00951,1.14132,1.14132,0,0,0,.1631-.019.17463.17463,0,0,0,.11054-.08527.1816.1816,0,0,0,.019-.14333.955.955,0,0,0-.12-.27324.7954.7954,0,0,0-.199-.20414,1.07244,1.07244,0,0,0-.26217-.13581,1.17524,1.17524,0,0,0-.31589-.06121l-.01063-.00041a.1752.1752,0,0,0-.1173.05369m.23536.32694a1.10052,1.10052,0,0,1,.13977.04265.93317.93317,0,0,1,.12122.07383c.01576.01383.0304.028.04419.04266a1.19059,1.19059,0,0,1-.11608-.03554,1.23509,1.23509,0,0,1-.15005-.09c-.013-.01064-.026-.02212-.03905-.03356"/>
            <path d="M39.07629,54.15109a2.06914,2.06914,0,0,0-.04424.29694,1.43048,1.43048,0,0,0,.01266.31787,1.266,1.266,0,0,0,.19266.53342.17.17,0,0,0,.14531.0837.17285.17285,0,0,0,.16266-.1232,1.94075,1.94075,0,0,0-.01262-1.0408.17209.17209,0,0,0-.1927-.122.16041.16041,0,0,0-.07738-.05176.1536.1536,0,0,0-.03789-.00473.1496.1496,0,0,0-.14846.11054"/>
            <path d="M39.43913,53.95528a.18867.18867,0,0,0,0,.26374,2.741,2.741,0,0,0,.46751.351.19107.19107,0,0,0,.22743-.02883.18892.18892,0,0,0,.05369-.13266.18064.18064,0,0,0-.05369-.13269c-.10937-.08568-.22505-.16226-.3368-.24441-.03121-.02487-.0632-.05014-.09279-.07618A.19748.19748,0,0,0,39.57182,53.9a.19044.19044,0,0,0-.13269.05527"/>
            <path d="M38.19184,53.47119a.92968.92968,0,0,0-.16428.02883.17086.17086,0,0,0-.12.20968.1857.1857,0,0,0,.04419.07617,1.59977,1.59977,0,0,0,.20058.20968,1.5465,1.5465,0,0,0,.22586.1532,1.75218,1.75218,0,0,0,.2527.10937,1.907,1.907,0,0,0,.3617.08369.12948.12948,0,0,0,.09-.013.11889.11889,0,0,0,.05527-.07067.12831.12831,0,0,0-.045-.12951l.00514-.00473a.16187.16187,0,0,0,.04779-.11414.17862.17862,0,0,0-.04779-.11527,1.11335,1.11335,0,0,0-.20968-.2081,1.00811,1.00811,0,0,0-.24793-.14252,1.02223,1.02223,0,0,0-.27324-.06951.984.984,0,0,0-.10225-.00513c-.0241,0-.0482.00081-.07306.002m.25941.3917c.02486.00748.04937.01577.07383.02487a1.5,1.5,0,0,1,.21045.12162c.01621.01342.03238.026.04819.03987-.02252-.00789-.045-.017-.06716-.02527a1.54339,1.54339,0,0,1-.24833-.14689l.00117.00157-.01815-.01577m.246.1532.01738.00708-.01738-.00708m.02211.00906.00789.00356-.00789-.00356"/>
            <path d="M39.11732,54.09623a1.65139,1.65139,0,0,0-.19662.028.93414.93414,0,0,0-.26846.109.86506.86506,0,0,0-.218.18793,1.165,1.165,0,0,0-.16266.26414.21.21,0,0,0-.02054.15162.19011.19011,0,0,0,.13739.13545,1.096,1.096,0,0,0,.16112.019.78943.78943,0,0,0,.1595-.02013.58269.58269,0,0,0,.14847-.05212.97516.97516,0,0,0,.14054-.07779,1.05811,1.05811,0,0,0,.24009-.227c.03473-.04621.06473-.092.09477-.13941a1.38129,1.38129,0,0,0,.09473-.20846.182.182,0,0,0-.08369-.20491.17879.17879,0,0,0-.09-.02451.18919.18919,0,0,0-.13663.05924"/>
            <path d="M38.34147,53.84155a.15987.15987,0,0,0,.01581.12319.16667.16667,0,0,0,.09474.07225,4.115,4.115,0,0,0,.428.15162.15807.15807,0,0,0,.17531-.07067.15579.15579,0,0,0-.05527-.21162,4.33079,4.33079,0,0,0-.46274-.17532.12276.12276,0,0,0-.04424-.00752.16518.16518,0,0,0-.15162.11807"/>
            <path d="M24.39874,53.30538a1.43639,1.43639,0,0,0-.09671.12158c-.0091.01581-.019.03161-.02806.049-.01261.02842-.02406.05648-.03631.08689a.91011.91011,0,0,0-.03829.31112,1.13576,1.13576,0,0,0,.07776.32694,1.70609,1.70609,0,0,0,.15638.30914.15037.15037,0,0,0,.20491.05373.11293.11293,0,0,0,.032-.02567l.01581.00077a.155.155,0,0,0,.15279-.1532,2.52614,2.52614,0,0,0-.0158-.518,1.78457,1.78457,0,0,0-.05487-.259,1.1848,1.1848,0,0,0-.1232-.27167.16333.16333,0,0,0-.13977-.07738.14113.14113,0,0,0-.10662.04581m.03122.29333.002.00437v.00117l-.002-.00554m.07144.22864c.00635.02883.01027.05843.015.08766l-.00077-.00477.00631.0632c-.00631-.02608-.01185-.05293-.017-.07978-.002-.02248-.00316-.04419-.00356-.06631"/>
            <path d="M24.458,53.83051a.09249.09249,0,0,0-.02959.07108,4.75147,4.75147,0,0,1,.03275.47418.10337.10337,0,0,0,.10108.10108.1005.1005,0,0,0,.10108-.10108,4.75147,4.75147,0,0,0-.03275-.47418.10829.10829,0,0,0-.02883-.07108.10321.10321,0,0,0-.07225-.03.10073.10073,0,0,0-.07149.03"/>
            <path d="M25.43323,53.57781a.66107.66107,0,0,0-.10779.02684.87858.87858,0,0,0-.38022.2369,1.20243,1.20243,0,0,0-.18477.2527,1.65,1.65,0,0,0-.12676.30324.14345.14345,0,0,0,.0983.17373.19237.19237,0,0,0,.03319.00514l.01419.00909a.18219.18219,0,0,0,.18639,0,1.30676,1.30676,0,0,0,.48959-.34391.72917.72917,0,0,0,.12595-.2073.8249.8249,0,0,0,.04581-.14648.70151.70151,0,0,0,.01265-.15162.16344.16344,0,0,0-.04738-.11572.15915.15915,0,0,0-.11532-.04734.20713.20713,0,0,0-.04383.00473"/>
            <path d="M24.68856,54.61545a.16031.16031,0,0,0-.11014.19307,1.089,1.089,0,0,0,.07144.21954.89086.89086,0,0,0,.05451.11212.96986.96986,0,0,0,.06711.10266,1.12111,1.12111,0,0,0,.14847.16585.87761.87761,0,0,0,.077.06279c.01581.01144.03158.02406.047.03473a.488.488,0,0,0,.10464.0541.13828.13828,0,0,0,.07424.02054.14777.14777,0,0,0,.07581-.02054.15273.15273,0,0,0,.07423-.12793,1.12134,1.12134,0,0,0-.02685-.25112.76432.76432,0,0,0-.09792-.22112.91383.91383,0,0,0-.16266-.18635,1.07077,1.07077,0,0,0-.21955-.15005.10216.10216,0,0,0-.08883-.00594.145.145,0,0,0-.047-.00788.16909.16909,0,0,0-.04148.00553m.29337.35063.01816.0209a.93182.93182,0,0,1,.05725.09716l-.00789-.0095c-.02446-.03513-.04657-.07144-.06752-.10856"/>
            <path d="M24.77306,54.73586a.1007.1007,0,0,0-.03.07149.11263.11263,0,0,0,.03.07107l.03514.0446a2.93114,2.93114,0,0,1,.24125.37392.105.105,0,0,0,.139.03634.10255.10255,0,0,0,.03631-.139c-.04266-.07779-.08685-.15162-.13581-.22622a2.52018,2.52018,0,0,0-.17374-.2322.09181.09181,0,0,0-.07108-.02959.10025.10025,0,0,0-.07108.02959"/>
            <path d="M23.77253,54.01924a.41827.41827,0,0,0-.13108.02645.4139.4139,0,0,0-.11572.0695.2277.2277,0,0,0-.06117.08212.35419.35419,0,0,0-.03.12162.36345.36345,0,0,0,.05369.19427.55409.55409,0,0,0,.17649.18793.96268.96268,0,0,0,.63648.15477.13088.13088,0,1,0,0-.26175,1.18137,1.18137,0,0,1-.18279-.00081.83119.83119,0,0,1-.16586-.045.76807.76807,0,0,1-.11765-.0691.48442.48442,0,0,1-.06478-.06518c-.00905-.01378-.01734-.02761-.02527-.04184l-.00549-.01933.009-.002c.02568-.00081.05018-.00041.07545.00117a1.4498,1.4498,0,0,1,.30558.09477c-.01419-.00594-.02882-.01265-.041-.019.11055.049.21793.10581.32375.16464a.17652.17652,0,1,0,.1781-.30482,2.92846,2.92846,0,0,0-.45923-.212.984.984,0,0,0-.31428-.058c-.015,0-.03.00036-.04423.00157m-.02567.319-.00829.00635.00829-.00635m-.019.02054-.00275.00752.00275-.00752"/>
            <path d="M24.28347,54.69325a.99421.99421,0,0,0-.29022.37112.63213.63213,0,0,0-.03671.0995.81053.81053,0,0,0-.02527.14532.887.887,0,0,0,.02369.26653.167.167,0,0,0,.20729.11684,1.16755,1.16755,0,0,0,.23018-.11684,1.06479,1.06479,0,0,0,.19428-.17491,1.19086,1.19086,0,0,0,.25112-.48369.19339.19339,0,0,0-.13427-.23536.19655.19655,0,0,0-.18635.04978.13959.13959,0,0,0-.02685-.03829.14622.14622,0,0,0-.10423-.04306.15457.15457,0,0,0-.10266.04306m.14135.26612c-.00473.01419-.00987.02761-.01581.04144a1.33544,1.33544,0,0,1-.09671.16622c-.017.01977-.034.03869-.05175.05689.00476-.02054.01107-.04068.01779-.06162a.81168.81168,0,0,1,.06594-.11685,1.10189,1.10189,0,0,1,.08054-.08608"/>
            <path d="M24.40428,54.62257c-.11689.21793-.23216.43748-.338.66175a.22128.22128,0,0,0-.02252.16424.21365.21365,0,0,0,.39049.05054c.10581-.22464.21166-.45009.32063-.67279a.20783.20783,0,0,0-.07306-.2768.19944.19944,0,0,0-.10226-.02725.19621.19621,0,0,0-.17531.10031"/>
            <path d="M23.65091,54.27906a.18761.18761,0,0,0,.019.14843.20489.20489,0,0,0,.11531.09,5.67918,5.67918,0,0,0,.65225.22468.182.182,0,0,0,.20216-.08252.179.179,0,0,0-.06473-.24482c-.2227-.10581-.45643-.1832-.687-.27166a.14357.14357,0,0,0-.05135-.00869.204.204,0,0,0-.18558.14454"/>
            <path d="M23.71609,54.23681a.11973.11973,0,0,0,.04221.16225,5.74159,5.74159,0,0,0,.58832.2768.111.111,0,0,0,.1382-.13739.10288.10288,0,0,0-.05212-.06792c-.18873-.08212-.3735-.17532-.55436-.27522a.13037.13037,0,0,0-.06-.01541.11859.11859,0,0,0-.10225.05689"/>
            <path d="M24.72252,54.45118a.2034.2034,0,0,0-.05883.14333.19342.19342,0,0,0,.05883.14414c.034.02725.06635.05527.09712.08527a.10421.10421,0,0,0-.02762.01266.15194.15194,0,0,0-.05369.20531,2.99812,2.99812,0,0,0,.15635.30482.89257.89257,0,0,0,.20649.229.19415.19415,0,0,0,.18044.047.188.188,0,0,0,.12914-.1291.87838.87838,0,0,0,.02721-.28747.93657.93657,0,0,0-.06788-.2827,1.14508,1.14508,0,0,0-.35851-.47225.21657.21657,0,0,0-.14572-.06.20452.20452,0,0,0-.14333.06"/>
            <path d="M15.45514,45.31528a.837.837,0,0,0-.15675.246.98378.98378,0,0,0-.04541.15676.95319.95319,0,0,0-.01225.20058,1.26985,1.26985,0,0,0,.05373.319,1.86346,1.86346,0,0,0,.15162.36009.11215.11215,0,0,0,.13816.04658.1713.1713,0,0,0,.32576-.015,1.62895,1.62895,0,0,0,.049-.67437,1.13806,1.13806,0,0,0-.0904-.32378,1.47106,1.47106,0,0,0-.08216-.1536.93845.93845,0,0,0-.13581-.1623.14386.14386,0,0,0-.10108-.04067.12339.12339,0,0,0-.09437.04067"/>
            <path d="M16.29815,45.82068a1.1073,1.1073,0,0,0-.30009.20851,2.25487,2.25487,0,0,0-.33324.42838.16585.16585,0,0,0,.05883.22545.16146.16146,0,0,0,.13937.01108.2.2,0,0,0,.21086.07423,1.2249,1.2249,0,0,0,.68544-.40274.38778.38778,0,0,0,.01261-.49121.3321.3321,0,0,0-.25108-.10383.56675.56675,0,0,0-.2227.05013m.18635.25586.004.00869-.004-.00869m-.01617.05054-.00239.00437a.81515.81515,0,0,1-.07383.07382,1.16373,1.16373,0,0,1-.20612.11568l-.00356.00158a1.48477,1.48477,0,0,1,.11806-.10937.9551.9551,0,0,1,.11928-.071c.01617-.00554.03234-.01067.04856-.015m-.17059.08806c-.00986.00752-.01973.01581-.03121.02292l.03121-.02292"/>
            <path d="M15.73077,46.704a.14142.14142,0,0,0-.006.04027.18764.18764,0,0,0-.026.22311,1.72828,1.72828,0,0,0,.976.798.20507.20507,0,0,0,.25586-.19585.81844.81844,0,0,0-.06316-.35378.93026.93026,0,0,0-.23535-.31626,1.19975,1.19975,0,0,0-.34428-.20491,1.58741,1.58741,0,0,0-.21005-.06635,1.7402,1.7402,0,0,0-.20216-.03473l-.01148-.00081a.15369.15369,0,0,0-.13342.11135m.51445.3218c.02608.01581.05212.03279.077.051a.88417.88417,0,0,1,.1177.11648l.00671.00865-.02882-.02013c-.06041-.05014-.1173-.10185-.17257-.156"/>
            <path d="M15.48,46.76279a.18271.18271,0,0,0-.05212.1236,1.42222,1.42222,0,0,0,.1086.81928.374.374,0,0,0,.4063.2085.278.278,0,0,0,.15635-.11963.47105.47105,0,0,0,.06316-.22469.678.678,0,0,0-.01262-.1449.78622.78622,0,0,0-.049-.16622,1.74483,1.74483,0,0,0-.22941-.398.14574.14574,0,0,0-.07068-.05527.14227.14227,0,0,0-.04265-.00279.21.21,0,0,0-.03-.03987.176.176,0,0,0-.12518-.05212.17192.17192,0,0,0-.12279.05212m.28351.3668c.02567.04306.04977.08689.07148.1327a1.02428,1.02428,0,0,1,.06117.21162.57174.57174,0,0,1,.00081.09712c-.00315.015-.00671.02963-.01144.04463l-.00594.00946-.015-.015a.73013.73013,0,0,1-.03947-.06792,1.14738,1.14738,0,0,1-.05215-.20608,1.7301,1.7301,0,0,1-.00946-.20653m.06711.12122.004.01027-.004-.01027m.00473.01265.00793.01581-.00793-.01581m-.02369.24955.00752.01617-.00752-.01617m.08216.1141-.00752.00275.00752-.00275m-.00793,0-.00234.00117.00234-.00117m.01739.00275-.00789.00121.00789-.00121m-.03275.00634-.01148.00514.01148-.00514"/>
            <path d="M15.43974,46.5768a1.63608,1.63608,0,0,0-.46076.19153.6532.6532,0,0,0-.2318.23689.38373.38373,0,0,0-.03474.27284.315.315,0,0,0,.04856.10581.42094.42094,0,0,0,.09635.09635.41536.41536,0,0,0,.21955.07738.384.384,0,0,0,.12356-.00788.54969.54969,0,0,0,.12-.04068.56.56,0,0,0,.20968-.1899.64592.64592,0,0,0,.08014-.15005,1.44205,1.44205,0,0,0,.07464-.25585.13016.13016,0,0,0-.01306-.08766.1915.1915,0,0,0,.00477-.1145.19748.19748,0,0,0-.23693-.13428m-.00316.40117c-.00748.0245-.01577.04937-.02527.07387a.83987.83987,0,0,1-.06554.11369.73441.73441,0,0,1-.06.06158.64373.64373,0,0,1-.05964.03437c-.01855.00554-.03671.01027-.05486.0146-.01185.0004-.02333.0004-.03477,0-.01658-.00393-.03316-.00789-.04974-.013l-.02053-.01225-.01185-.01262-.00671-.01108-.00041-.00157v-.00906l.004-.013c.00631-.01108.013-.02252.02054-.0336a.67632.67632,0,0,1,.05054-.05014,1.06775,1.06775,0,0,1,.169-.09238c.04819-.01816.09716-.03473.14531-.04937m-.11527.03635-.01581.00711.01581-.00711m-.17653.08685-.01063.00909.01063-.00909"/>
            <path d="M14.76573,46.01063a.38759.38759,0,0,0-.169.21951.41574.41574,0,0,0,.00829.24049.52857.52857,0,0,0,.16225.23689.90869.90869,0,0,0,.72062.16743.15913.15913,0,0,0,.10383-.04306.14515.14515,0,0,0,.043-.10266.13919.13919,0,0,0-.00946-.05094.18609.18609,0,0,0,.10225.0304.19425.19425,0,0,0,.13783-.33166,2.42771,2.42771,0,0,0-.45328-.31586,1.08167,1.08167,0,0,0-.1931-.0786.80109.80109,0,0,0-.17649-.03157.42974.42974,0,0,0-.045-.00275.49276.49276,0,0,0-.2318.06238m.25784.30874a.76509.76509,0,0,1,.13585.03951,1.789,1.789,0,0,1,.30955.19031l.04027.03356a.0962.0962,0,0,0-.02131-.00041,1.12838,1.12838,0,0,1-.25549.00595,1.10224,1.10224,0,0,1-.14252-.03712.55869.55869,0,0,1-.08924-.05135.47057.47057,0,0,1-.049-.04856.33881.33881,0,0,1-.0245-.043l-.00946-.03081-.00041-.02527.00279-.00986.00473-.00712.00158-.00157.01581-.0091.02171-.0055a.49848.49848,0,0,1,.0596.00036m-.049.16189.01819.01383-.01819-.01383"/>
            <path d="M14.731,46.23649a.13945.13945,0,0,0-.01423.10739.15764.15764,0,0,0,.06477.08369l.00473.00315c.02924.0241.05883.04622.08964.0691a.71278.71278,0,0,0,.10937.08212.12888.12888,0,0,0,.062.017c.12085.08531.24482.16428.36486.25036a.18483.18483,0,0,0,.22347-.29063,4.53743,4.53743,0,0,0-.415-.32059.17692.17692,0,0,0-.1441-.019l-.01815.00591a1.40523,1.40523,0,0,0-.169-.05329A.14586.14586,0,0,0,14.853,46.167a.14192.14192,0,0,0-.122.0695"/>
            <path d="M11.35234,51.32405a.3248.3248,0,0,0-.12477.06946.28667.28667,0,0,0-.0632.08648.50573.50573,0,0,0-.04107.11568.90112.90112,0,0,0,0,.33166,1.42987,1.42987,0,0,0,.13112.39171,2.11883,2.11883,0,0,0,.29058.43432.16427.16427,0,0,0,.28113-.11685l-.00077-.01739a.16868.16868,0,0,0,.09081-.049.1707.1707,0,0,0,.05211-.12477,3.99916,3.99916,0,0,0-.10108-.57531,1.13258,1.13258,0,0,0-.1595-.36914.42336.42336,0,0,0-.2227-.17532.21748.21748,0,0,0-.06793-.0095.25464.25464,0,0,0-.06473.00793m.02527.34585.00235.00041-.00235-.00041m.08055.13108.00432.0095a2.47019,2.47019,0,0,1,.11293.4c-.01225-.0237-.02329-.04658-.03437-.07027a1.32131,1.32131,0,0,1-.079-.27955c-.002-.01973-.00316-.03946-.00392-.05964m.011.02491.01108.02369-.01108-.02369m.05843.28468.01306.028-.01306-.028"/>
            <path d="M12.22689,51.82787a.68323.68323,0,0,0-.12991.08725,1.22082,1.22082,0,0,0-.12279.12437,1.80379,1.80379,0,0,0-.26847.46117.16175.16175,0,0,0-.01581.11846.14507.14507,0,0,0,.07068.09158l.0063.00356a.20619.20619,0,0,0,.092.11333.19357.19357,0,0,0,.15594.02054,1.39041,1.39041,0,0,0,.706-.48644.48729.48729,0,0,0,.07738-.26022.3633.3633,0,0,0-.09477-.23256.25981.25981,0,0,0-.08644-.06316.35941.35941,0,0,0-.13937-.03634l-.03-.00118a.50872.50872,0,0,0-.22072.05964m.19545.28743a.54548.54548,0,0,1-.0292.049.793.793,0,0,1-.09558.09356,1.4403,1.4403,0,0,1-.17054.10347c.00946-.01423.01856-.02842.02842-.04185a1.10873,1.10873,0,0,1,.13582-.14018.88493.88493,0,0,1,.08134-.04936c.01581-.0055.03239-.01027.049-.0146h.00077m-.02645.00356-.01027.00473.01027-.00473m-.22468.17806-.00707.01027.00707-.01027"/>
            <path d="M11.93274,52.57412a.13071.13071,0,0,0-.10463.06118.21071.21071,0,0,0-.07541.02369.20406.20406,0,0,0-.09.11729.21627.21627,0,0,0,.02054.15005,2.28171,2.28171,0,0,0,.34116.54644.97588.97588,0,0,0,.15793.14373.71338.71338,0,0,0,.17847.0932.42636.42636,0,0,0,.14689.02207.40978.40978,0,0,0,.17846-.04577.33974.33974,0,0,0,.11212-.09477.67417.67417,0,0,0,.04739-.06635.75141.75141,0,0,0,.0395-.0904.59794.59794,0,0,0,.01419-.30324.64624.64624,0,0,0-.15319-.306.72925.72925,0,0,0-.30009-.20059.875.875,0,0,0-.22743-.04936,1.31633,1.31633,0,0,0-.14212-.00752c-.04779,0-.09558.00238-.14374.00634m.1291.23572a1.03981,1.03981,0,0,1,.111.00671.8461.8461,0,0,1,.16824.04658.79732.79732,0,0,1,.10265.06158.66239.66239,0,0,1,.06239.06121.5017.5017,0,0,1,.04739.079.70209.70209,0,0,1,.02365.08292.65577.65577,0,0,1,.00081.08806.40166.40166,0,0,1-.01581.05645.197.197,0,0,1-.01815.032l-.011.01108-.01185.00671-.00356.00117h-.0158l-.02406-.00671A.58437.58437,0,0,1,12.4026,53.29a1.15272,1.15272,0,0,1-.12319-.12873,2.66707,2.66707,0,0,1-.21757-.3514m.25469.04225.02053.00906-.02053-.00906"/>
            <path d="M11.43681,52.599a1.78063,1.78063,0,0,0-.18991.518,1.09106,1.09106,0,0,0,.00355.41581.91219.91219,0,0,0,.05609.16383.63586.63586,0,0,0,.08725.12635.43512.43512,0,0,0,.21954.139.34481.34481,0,0,0,.24162-.02842.28522.28522,0,0,0,.08883-.07423.3814.3814,0,0,0,.07032-.12005.75381.75381,0,0,0,.03513-.338,2.03226,2.03226,0,0,0-.15162-.5844.1052.1052,0,0,0-.12437-.071.10412.10412,0,0,0-.07148.12477,2.15472,2.15472,0,0,1,.13346.47851.952.952,0,0,1,.00158.18955.698.698,0,0,1-.02567.09793.33054.33054,0,0,1-.02645.045l-.01815.01936-.01662.00987-.01852.00513-.01463-.0004-.02248-.0059c-.01149-.00595-.02212-.01347-.0332-.02054a.47968.47968,0,0,1-.03869-.04068.51449.51449,0,0,1-.04816-.0849.969.969,0,0,1-.03319-.12676,1.158,1.158,0,0,1,.00162-.17369,1.36708,1.36708,0,0,1,.08644-.30721l-.00433.0091c.03-.06793.06316-.13387.09951-.19864a.16834.16834,0,0,0-.06041-.22545.16249.16249,0,0,0-.08373-.02248.1599.1599,0,0,0-.14333.08054m.18085.38261-.00591.01419.00591-.01419m.21914.55869-.00239.02369.00239-.02369m-.03121.11094-.00275.00752.00275-.00752m-.00433.01068-.00987.01225.00987-.01225"/>
            <path d="M10.75217,52.13742a.426.426,0,0,0-.14058.0604.3922.3922,0,0,0-.1232.11847.43377.43377,0,0,0-.07265.26491.61509.61509,0,0,0,.35378.49909,1.11976,1.11976,0,0,0,.89868-.019.19947.19947,0,0,0,.10739-.08369.18191.18191,0,0,0-.06473-.2464.19624.19624,0,0,0-.04266-.01815.19377.19377,0,0,0,.04266-.04973.18614.18614,0,0,0,.01892-.14216.20549.20549,0,0,0-.08528-.11054,1.78721,1.78721,0,0,0-.5054-.25428.76785.76785,0,0,0-.22981-.03518.75129.75129,0,0,0-.15712.01622m.20847.37432a1.271,1.271,0,0,1,.21954.06869,3.00086,3.00086,0,0,1,.2764.14924.14816.14816,0,0,0,.02761.01342,1.54309,1.54309,0,0,1-.19977.05135,1.13709,1.13709,0,0,1-.19743.00275.68086.68086,0,0,1-.1232-.03316.31434.31434,0,0,1-.1295-.09437c-.01027-.015-.019-.03-.02766-.0458l-.011-.03712V52.554l.00239-.01027.00671-.01068.00748-.00711.01144-.00631a.27883.27883,0,0,1,.0391-.01067.581.581,0,0,1,.09793.00279m-.17216.03829.00158.00905v.00041L10.78848,52.55m.00158.00986.0008.00514-.0008-.00514h0m.35062.00239.03.01378c-.00987-.00432-.01974-.00828-.03-.01378"/>
            <path d="M10.85168,52.42723l-.00555-.002a.10707.10707,0,0,0-.13265.07541.09842.09842,0,0,0,.01063.08135.16544.16544,0,0,0,.02175.10621.22878.22878,0,0,0,.02289.05252.21542.21542,0,0,0,.13581.10622c.09716.013.1931.03275.29022.0446.017.00553.034.01027.05094.015a.86434.86434,0,0,0,.18162.03157.12986.12986,0,0,0,.12635-.09631.12263.12263,0,0,0-.00274-.07819.20924.20924,0,0,0-.01266-.17649l-.01144-.02329a.20428.20428,0,0,0-.12951-.09792,3.73889,3.73889,0,0,0-.43116-.0695h-.0087a.20258.20258,0,0,0-.1058.0308"/>
            <path d="M11.43838,51.65256a.14578.14578,0,0,0-.08527.06473.15908.15908,0,0,0-.01423.11094l.00869.049A.14617.14617,0,0,0,11.32784,52c.03316.11256.07108.22428.11054.33486a.183.183,0,0,0,.03752.062l.013.03275a.15368.15368,0,0,0,.06793.08887.14873.14873,0,0,0,.21954-.16743c-.03513-.09477-.07027-.18874-.105-.28351-.02211-.10383-.03788-.21-.05608-.31545a.14027.14027,0,0,0-.14013-.10464.12886.12886,0,0,0-.03676.00514"/>
            <path d="M11.49131,52.92354a.146.146,0,0,0-.03789.0904,3.39723,3.39723,0,0,0-.02527.35973.79429.79429,0,0,0,.09632.33954.13843.13843,0,0,0,.233.00753.18381.18381,0,0,0,.06081-.06122,1.29007,1.29007,0,0,0,.09081-.24441l.00712-.00987a.17765.17765,0,0,0,.019-.14689.18928.18928,0,0,0-.08608-.11329l.00077-.0158a.15918.15918,0,0,0-.11527-.15162.12681.12681,0,0,0-.03239-.00554.13428.13428,0,0,0-.12081-.08487.12784.12784,0,0,0-.09.03631"/>
            <path d="M12.15423,52.65859a.20184.20184,0,0,0-.10185.07387l-.015-.02176a.11417.11417,0,0,0-.15162-.03946.11253.11253,0,0,0-.03986.15162,2.05132,2.05132,0,0,0,.278.33955.97385.97385,0,0,0,.15477.11847.54685.54685,0,0,0,.08369.04423l.00631.00788a.16976.16976,0,0,0,.2073.02644.16632.16632,0,0,0,.077-.10265.17121.17121,0,0,0-.01735-.13068,1.34374,1.34374,0,0,0-.19981-.28193l-.0055-.02644a.18125.18125,0,0,0-.08058-.10383.25.25,0,0,0-.14608-.06554.11841.11841,0,0,0-.04937.01023m.19545.08373.00869.01027.00041.00036-.0091-.01063"/>
            <path d="M42.408,49.16384a8.55169,8.55169,0,0,0-1.02264-2.09859A5.94291,5.94291,0,0,0,39.7894,45.463a5.22755,5.22755,0,0,0-1.03531-.52949,7.99929,7.99929,0,0,0-1.18374-.33364c-.63928-.14412-1.30259-.25073-1.88812-.34509l-.075-.01185-.3696-.05883a14.22585,14.22585,0,0,1-2.03382-.43554c-.1532-.047-.30287-.10266-.45128-.16225a4.1588,4.1588,0,0,1-.8363-.48134,3.332,3.332,0,0,1-.49514-.49514,3.49544,3.49544,0,0,1-.42761-.73675,5.31783,5.31783,0,0,1-.32972-1.28917l-.01893.04028c-.02764-.40235-.0462-.75652-.05054-1.11386a13.68609,13.68609,0,0,0,2.25693-1.1731A13.98883,13.98883,0,0,0,35.219,36.41749a15.20515,15.20515,0,0,0,1.01751-1.14031,14.75567,14.75567,0,0,0,1.87988-3.04582,13.88658,13.88658,0,0,0,1.15963-3.87226c.01108-.071.02056-.14251.02843-.212l.01108-.08013.06315.01932a1.78962,1.78962,0,0,0,.22.03477c.07739.00748.152.01064.22622.01064a1.88521,1.88521,0,0,0,.26418-.01735,2.50132,2.50132,0,0,0,.88447-.304,3.19148,3.19148,0,0,0,.74308-.58792,4.03172,4.03172,0,0,0,.58829-.8,5.1003,5.1003,0,0,0,.40787-.92631,4.328,4.328,0,0,0,.19429-.97368,2.9694,2.9694,0,0,0-.351-1.76177,2.12475,2.12475,0,0,0-.94012-.83712,8.58574,8.58574,0,0,0,.43985-1.3381c.07554-.29722.138-.59426.19461-.8883a1.58436,1.58436,0,0,1-.75514-1.66451,5.6261,5.6261,0,0,1,.95044-2.69234,4.50684,4.50684,0,0,1,.33974-.40107c.00962-.17027.01609-.334.02174-.496-1.15958-.96033-2.25954-1.61494-2.538-3.25754a4.98146,4.98146,0,0,1,.30574-2.78234c.025-.08.04363-.16176.06663-.24231-.3161.03438-.6341.07236-.94886.10056a3.89532,3.89532,0,0,1-4.0685-1.828,4.17415,4.17415,0,0,1-.42668-1.509A6.59955,6.59955,0,0,1,33.789,5.9279a3.65911,3.65911,0,0,1-5.08969-1.83731c-.03657-.06981-.14471-.29346-.25146-.51542-.13561.08359-.21559.132-.08344.03026a4.95382,4.95382,0,0,1-3.53918,1.4,4.89969,4.89969,0,0,1-2.4067-.94824c-.3066-.21929-1.155-1.08641-1.27364-1.03015a12.27523,12.27523,0,0,0-.54743,1.3094A4.45961,4.45961,0,0,1,19.074,5.795c-1.64643.99868-2.90122.38021-4.43346-.39536-.07216-.03652-.26156-.0975-.46224-.16626.079,2.62895-1.29523,4.8403-4.16059,4.6753-.54061-.03112-2.65337-.60618-2.72817-.4824-.11379.18829.56,1.36214.6044,1.513a3.60976,3.60976,0,0,1,.11436,1.71609,4.06028,4.06028,0,0,1-2.54242,2.77343,17.47176,17.47176,0,0,0,.39654,2.876c-.06152.07869-.12765.1551-.19411.23113a3.40661,3.40661,0,0,1,.57886,5.061c-.041.04768-.07586.09015-.10576.12815a5.79657,5.79657,0,0,1,1.6349.31516,3.94913,3.94913,0,0,1,2.203,3.157A2.555,2.555,0,0,1,8.877,29.31252c.26376.1209.52658.259.58528.28651a5.22908,5.22908,0,0,1,2.33647,1.9373,4.09889,4.09889,0,0,1,.45589,2.65794,7.99124,7.99124,0,0,1,2.26616,2.781c.10328-.09225.20658-.186.30889-.29083a5.65188,5.65188,0,0,0,.63531-.79008,10.17485,10.17485,0,0,0,1.823,1.817,13.08989,13.08989,0,0,0,2.69163,1.65084,10.916,10.916,0,0,0,1.9166.68584,6.51373,6.51373,0,0,1,.08094.8963,3.90393,3.90393,0,0,1-.11332.95115,3.19317,3.19317,0,0,1-.29221.71035,3.269,3.269,0,0,1-.4213.54212,3.66677,3.66677,0,0,1-.6736.51922,5.998,5.998,0,0,1-1.32863.55554l-.03788.01382a14.11824,14.11824,0,0,1-2.02083.35694c-.65386.07342-1.29788.1133-2.07214.15794-.40551.02327-.81022.04738-1.213.08684a10.45076,10.45076,0,0,0-1.4013.22941,6.6854,6.6854,0,0,0-1.31012.436,5.14532,5.14532,0,0,0-1.15252.71741,4.704,4.704,0,0,0-.70322.732A5.40584,5.40584,0,0,0,8.635,47.958a9.81791,9.81791,0,0,0-.77743,2.46975,12.74718,12.74718,0,0,0-.20689,2.53566c.00315.41026.02645.83554.07109,1.30061.03712.42328.09592.85131.17566,1.273a.21553.21553,0,0,0,.01384.05131.1676.1676,0,0,0,.0632.16586,19.92612,19.92612,0,0,0,5.87325,2.87009,28.42963,28.42963,0,0,0,3.25038.81536,31.60268,31.60268,0,0,0,3.31906.44382c1.13834.09356,2.3126.141,3.48884.141,1.32631,0,2.70073-.06083,4.08505-.18046a52.71126,52.71126,0,0,0,7.49609-1.21412c.49911-.11883.9954-.24839,1.48935-.37829l.12835-.03433.15-.03951c.62859-.16738,1.2556-.33638,1.87943-.51369.69495-.197,1.30775-.377,1.87319-.55394.29687-.09321.5954-.18992.89074-.291.075-.02369.15081-.05093.22622-.07778l.05531-.02014.11527-.04225.04266-.01582c.15162-.05527.30009-.12.45013-.18676l.05054-.02169a.23029.23029,0,0,0,.12835-.111.184.184,0,0,0,.02245-.06794.26661.26661,0,0,0,.04109-.12951,19.7107,19.7107,0,0,0-.0821-4.62359A13.26384,13.26384,0,0,0,42.408,49.16384ZM35.146,44.6314a.50878.50878,0,0,0-.21995.12717l-.00316.01184a1.77617,1.77617,0,0,0-.0821-.21282A1.56621,1.56621,0,0,0,35.146,44.6314Zm-.7123-.13106a.31936.31936,0,0,0-.04106.14607.74765.74765,0,0,0-.00632.13306,2.05178,2.05178,0,0,0-.2894-.18081.27171.27171,0,0,0-.12361-.032l-.0245.01185-.00116-.01463c-.00592-.064-.01185-.12712-.01619-.19108A4.301,4.301,0,0,0,34.43371,44.50034Zm-.2527.86a.8202.8202,0,0,0-.13188.14014l-.004-.06-.011-.08212c-.00787-.05684-.01582-.11374-.02053-.17058a.449.449,0,0,0,.12635.14094ZM25.64607,54.4658q-.00711,1.18864-.03635,2.37657c-.00945.39484-.02206.78966-.03472,1.18295-.00632.20964-.01419.42009-.02212.62859l-.00631.17847-.00316.08684-.00279.09c-.00234.09042-.00508.18005-.00508.27l-.00637.19742a.897.897,0,0,0-.71741-.77152.24017.24017,0,0,0-.05412-.0063.192.192,0,0,0-.058.00788.30871.30871,0,0,0-.16546.17531.25823.25823,0,0,0,.0091.1449,1.36985,1.36985,0,0,0,.05918.17018.545.545,0,0,0-.24557-.06752,1.5154,1.5154,0,0,0-.20216-.01219c-.0209,0-.043,0-.06554.00156l-.08371-.00672A.17235.17235,0,0,0,23.857,59.2a.14939.14939,0,0,0-.02369.08724.18734.18734,0,0,0,.04973.1224.80782.80782,0,0,0,.154.15086.68383.68383,0,0,0,.06636.04772l-.38618-.02011c-1.12689,0-2.25143-.04383-3.34194-.12951-.65667-.05293-1.25247-.1169-1.82223-.19626a.57968.57968,0,0,0,.17968-.26573.29127.29127,0,0,0,.09158.109.943.943,0,0,0,.27126.16346.99937.99937,0,0,0,.16147.04576.74377.74377,0,0,0,.11766.0095c.034,0,.06715-.00158.10031-.00437a.19423.19423,0,0,0,.11925-.05012.17556.17556,0,0,0,.04224-.16347.97616.97616,0,0,0-.08252-.25509,1.646,1.646,0,0,0-.08213-.14883c-.02053-.03159-.04185-.05923-.06477-.08847a1.42879,1.42879,0,0,0-.2649-.24757.86276.86276,0,0,0-.111-.07423.68056.68056,0,0,0,.24681-.10382.756.756,0,0,0,.27915-.28942.45677.45677,0,0,0,.0482-.31193.4065.4065,0,0,0-.16505-.24283.49847.49847,0,0,0-.24009-.07623.57379.57379,0,0,0-.28981.07465.786.786,0,0,0-.2606.24125l-.02964.04423a.38417.38417,0,0,0-.00432-.16386,1.28155,1.28155,0,0,0-.14374-.4237.59713.59713,0,0,0-.17845-.19818.28209.28209,0,0,0-.12793-.04028.27484.27484,0,0,0-.13148.02883.24548.24548,0,0,0-.08845.08644.30685.30685,0,0,0-.04306.09595.5644.5644,0,0,0-.01932.12243.85493.85493,0,0,0,.01105.18241,1.49821,1.49821,0,0,0,.03315.16663.42212.42212,0,0,0-.20411-.08252.7118.7118,0,0,0-.13149-.01108,1.01768,1.01768,0,0,0-.19468.02055.16718.16718,0,0,0-.109.0841.17677.17677,0,0,0,.00039.18282,1.91814,1.91814,0,0,0,.18047.21361,1.575,1.575,0,0,0,.214.1741.46514.46514,0,0,0-.171.07581.4088.4088,0,0,0-.17176.22153.31163.31163,0,0,0,.04935.26729.46929.46929,0,0,0,.105.10228.72149.72149,0,0,0,.11292.0557.73725.73725,0,0,0,.25744.043.86912.86912,0,0,0,.26536-.04465,1.13888,1.13888,0,0,0-.0865.4158c-.45643-.08566-.92511-.16941-1.38-.26255a26.71106,26.71106,0,0,1-3.23888-.86947c.03827.0075.07739.01145.11532.015a.76581.76581,0,0,0,.08607.00631.69489.69489,0,0,0,.08526-.00631,1.18,1.18,0,0,0,.23612-.04107,1.0402,1.0402,0,0,0,.1552-.06357.25132.25132,0,0,0,.14133-.15873.23922.23922,0,0,0-.02567-.1895,1.50322,1.50322,0,0,0-.21242-.25825,1.066,1.066,0,0,0-.31509-.20611,1.25557,1.25557,0,0,0-.295-.09673l.05881-.04346a1.38537,1.38537,0,0,0,.17455-.32414,1.2035,1.2035,0,0,0,.064-.37708.222.222,0,0,0-.06791-.1607.23546.23546,0,0,0-.14491-.06752,1.12737,1.12737,0,0,0-.37473.092,1.0383,1.0383,0,0,0-.31667.22824,1.09077,1.09077,0,0,0-.18552.276.7411.7411,0,0,0-.13978-.34349.84669.84669,0,0,0-.18715-.1761.13247.13247,0,0,0-.08137-.04975.16059.16059,0,0,0-.07936-.02056.252.252,0,0,0-.09518.02411.16837.16837,0,0,0-.073.04144.22587.22587,0,0,0-.05212.10347.98126.98126,0,0,0-.03909.1899,1.30888,1.30888,0,0,0-.00514.16149.8451.8451,0,0,0,.0367.19508.85513.85513,0,0,0,.13743.26967.71279.71279,0,0,0,.06712.08768l.02488.03315.02485.04143a.08261.08261,0,0,0-.049-.02248.40952.40952,0,0,0-.10185-.01306.28917.28917,0,0,0-.05293.00479.25527.25527,0,0,0-.10108.02562.6165.6165,0,0,0-.08368.03951.1271.1271,0,0,0-.06239.10937,17.6012,17.6012,0,0,1-3.10268-1.67727l-.09716-.06794-.10421-.07423a2.10141,2.10141,0,0,0,.50777-.33325c.02843-.02527.05844-.05212.08528-.08094l.03157-.03157a1.16569,1.16569,0,0,0,.18244-.25193.97352.97352,0,0,0,.0936-.28231.12539.12539,0,0,0-.02808-.11216.115.115,0,0,0-.07737-.03157.17022.17022,0,0,0-.08328-.02053.40839.40839,0,0,0-.04583-.00358.46606.46606,0,0,0-.07936.00829.38545.38545,0,0,0-.09395.02254c-.03.011-.06041.02369-.08926.03593l-.03832.02406a.55414.55414,0,0,0,.08649-.1595,2.07855,2.07855,0,0,0,.15715-.72888.18822.18822,0,0,0-.18126-.18439.09782.09782,0,0,0-.05088.01027,1.01868,1.01868,0,0,0-.321.169,1.09851,1.09851,0,0,0-.12356.10779,1.25339,1.25339,0,0,0-.124.16031l-.03754.06.00911-.32179-.00514-.32535-.02411.064c.02135-.70482.05178-1.27337.10308-1.78825a11.94163,11.94163,0,0,1,.32693-1.80915A8.82436,8.82436,0,0,1,9.35916,47.785l.04261-.06752a.10862.10862,0,0,0,.07581.06636.62667.62667,0,0,0,.109.03793.77046.77046,0,0,0,.15438.02248l.05528-.002.08881-.01063a.79705.79705,0,0,0,.16744-.05252.762.762,0,0,0,.17729-.09873l-.02172.04422a1.20737,1.20737,0,0,0,.03.29613,1.1706,1.1706,0,0,0,.10026.26576.17772.17772,0,0,0,.15718.09594.15093.15093,0,0,0,.11687-.05054l.06554-.08017a.84329.84329,0,0,0,.06315-.11172.969.969,0,0,0,.09677-.27679A.99336.99336,0,0,0,10.856,47.729c.00158.01577.01737.02564.03277.03551a.34968.34968,0,0,0,.10226.04148.32652.32652,0,0,0,.05054.04344.84922.84922,0,0,0,.22188.13029,1.32016,1.32016,0,0,0,.27442.079.25674.25674,0,0,0,.04819.00514.17747.17747,0,0,0,.1287-.0537.18608.18608,0,0,0,.047-.17729.73933.73933,0,0,0-.09356-.246.81712.81712,0,0,0-.06-.09042,1.21146,1.21146,0,0,0-.10661-.12042,1.239,1.239,0,0,0-.22625-.16505.862.862,0,0,0-.07781-.04146.16476.16476,0,0,0-.0339-.03079.38418.38418,0,0,0,.15709-.0691,1.03041,1.03041,0,0,0,.32538-.36168.1872.1872,0,0,0,.02093-.15.19353.19353,0,0,0-.13743-.13543c-.03157-.00632-.06355-.01145-.09514-.01461-.0399-.00279-.06633-.00437-.0936-.00437-.0304,0-.06038.00158-.09355.00437a.73619.73619,0,0,0-.233.06081.34812.34812,0,0,0,.03477-.1477.15512.15512,0,0,0-.09044-.14807,7.57636,7.57636,0,0,1,1.32154-.51643v-.00039a10.48486,10.48486,0,0,1,1.31325-.25862c.4438-.06044.886-.09319,1.30143-.12162l.07107-.00473c.65223-.04423,1.32584-.09,1.98051-.16426a13.2457,13.2457,0,0,0,1.87075-.33209,9.53624,9.53624,0,0,1-.06947,1.81868,16.89939,16.89939,0,0,1-1.24931,4.18613c-.10621.25389-.21319.494-.32056.7336l-.03006.06675c-.11685.259-.23372.518-.35849.77229a.16886.16886,0,0,0-.01577.12756.14774.14774,0,0,0,.07773.09713,3.62879,3.62879,0,0,0,.54059.20729l-.04032-.00829a.73177.73177,0,0,0-.1208.04973l-.03869.01855a.15708.15708,0,0,0-.08411.10387.19575.19575,0,0,0,.02567.15834.1.1,0,0,0,.02761.10465,1.48045,1.48045,0,0,0,.214.17253,1.25911,1.25911,0,0,0,.24406.12237l.06118.02369-.062.03712-.05609.0458a.75878.75878,0,0,0-.11054.13588.64931.64931,0,0,0-.08607.16146,1.2055,1.2055,0,0,0-.05883.20137.248.248,0,0,0,.00513.17134.46693.46693,0,0,0,.05609.06436.14984.14984,0,0,0,.06631.04027.18437.18437,0,0,0,.049.00635.29331.29331,0,0,0,.05212-.00635c.03-.00273.06318-.00787.09318-.01261a1.12474,1.12474,0,0,0,.54252-.28507.51532.51532,0,0,0,.07028-.06987.40862.40862,0,0,0,.04657.24044.43988.43988,0,0,0,.36841.27086.35566.35566,0,0,0,.23333-.09871.42272.42272,0,0,0,.10387-.25549.47263.47263,0,0,0-.00827-.13027.80429.80429,0,0,0-.06952-.22585c-.00787-.01856-.01737-.03751-.02684-.05688a.45635.45635,0,0,0,.28031.13269l.06717.00276a.48225.48225,0,0,0,.21122-.0478.44564.44564,0,0,0,.18634-.16423.36009.36009,0,0,0,.0482-.24873.4417.4417,0,0,0-.126-.23577.74906.74906,0,0,0-.32851-.17055,1.23544,1.23544,0,0,0-.21714-.04264c-.05375-.00632-.09873-.01026-.13977-.01261.075,0,.14922-.00163.2203-.00321a8.707,8.707,0,0,0,1.2844-.15478,10.15849,10.15849,0,0,0,1.31288-.35378,11.56445,11.56445,0,0,0,2.38762-1.12488,9.10986,9.10986,0,0,0,1.01554-.72851c.124-.10108.26057-.22585.4284-.39166l.11372-.12045-.00671.65741C25.639,51.89458,25.65239,53.18335,25.64607,54.4658Zm.88679-5.06742a1.19218,1.19218,0,0,1-.22345.0608c-.036.00353-.07187.00516-.10822.00516-.02369,0-.04738,0-.07225-.00163a1.18178,1.18178,0,0,1-.24044-.06433,3.05277,3.05277,0,0,1-.56305-.35815c-.1165-.09-.23058-.18121-.34393-.27481L24.88678,48.69l-.23848-.1915-.28-.22585a13.23593,13.23593,0,0,1-.99143-.90185,19.8045,19.8045,0,0,1-1.7002-1.95919c-.31585-.41024-.64715-.8655-1.0128-1.393l.09834-.05725.07581-.05212a3.66492,3.66492,0,0,0,.70675-.6436,3.14324,3.14324,0,0,0,.50977-.86194,4.26688,4.26688,0,0,0,.167-2.29565,4.63893,4.63893,0,0,0,.66731.13427,7.48722,7.48722,0,0,0,.98232.06631c.08531,0,.16981-.00155.25509-.00471a.11769.11769,0,0,0,.00116-.23533q-.11308.00474-.22385.00474a7.07262,7.07262,0,0,1-.92393-.06515,8.98716,8.98716,0,0,1-2.1847-.62188A12.17751,12.17751,0,0,1,16.03,35.73478a10.86286,10.86286,0,0,1-1.34047-2.33826,12.9085,12.9085,0,0,1-.86076-3.18442,12.36739,12.36739,0,0,1-.00239-3.20492l-.04067.04938a12.127,12.127,0,0,1,.73164-2.61192,8.74125,8.74125,0,0,1,1.04042-1.79814,7.01261,7.01261,0,0,1,.50819-.58869,8.92583,8.92583,0,0,1,1.87943-.8521,8.86549,8.86549,0,0,1,2.06345-.3518.38846.38846,0,0,0,.04265-.00158c.07815-.00158.13819-.00313.20176-.00313.15636,0,.3139.00471.47068.01263a.37717.37717,0,0,0,.2566-.07976.35109.35109,0,0,0-.19148-.62032,4.91559,4.91559,0,0,0-.5532-.03157,5.73078,5.73078,0,0,0-1.15844.12238,5.93477,5.93477,0,0,0-1.06216.32538l.2468-.10227c.13938-.0632.289-.13071.45247-.20176l.05054-.02169a24.59927,24.59927,0,0,1,2.90215-.92l.10027-.02806c.6811-.18477,1.45339-.39445,2.17322-.64873a9.71182,9.71182,0,0,0,2.45235-1.2311,6.89081,6.89081,0,0,0,1.07953-.9591c.14685-.16265.28428-.33638.4185-.51014a3.61987,3.61987,0,0,0-.31192,1.43923,2.03975,2.03975,0,0,0,.24048.97013,1.85425,1.85425,0,0,0,.79127.72373,2.80679,2.80679,0,0,0,1.18966.29379h.05054a3.16471,3.16471,0,0,0,1.08661-.2069,4.74479,4.74479,0,0,0,.75852-.36681,6.72673,6.72673,0,0,0,.72373-.51332,10.24948,10.24948,0,0,0,1.31007-1.28364c.48963-.55436.935-1.145,1.314-1.65516a.81787.81787,0,0,0-.06081.34035,1.79848,1.79848,0,0,0,.06794.55081.82517.82517,0,0,0,.23337.38734.51746.51746,0,0,0,.336.13346.67987.67987,0,0,0,.44815-.21124.33067.33067,0,0,0,.04306-.04109,4.225,4.225,0,0,0-.03711.83275,5.23054,5.23054,0,0,0,.22106,1.34368,7.86479,7.86479,0,0,0,.58792,1.34637c.14691.27481.30482.54333.46752.8118l.08526.14256c.05054.08213.09953.16544.14649.25112a2.80379,2.80379,0,0,1,.15046.30716,9.73634,9.73634,0,0,1,.39287,1.29117l.01261.04619c.05849.229.1169.45486.18484.68074a2.30214,2.30214,0,0,0,.36876.78769.72931.72931,0,0,0,.56541.28742.54336.54336,0,0,0,.06992-.00471,1.40377,1.40377,0,0,0,.73672-.36763c-.01732.019-.009.0478.021.08847a1.9819,1.9819,0,0,1,.1986.36049c.0233.07068.04383.13383.06123.20335a1.92523,1.92523,0,0,1,.04259.28666c.00158.047.00316.12635.00158.2061a2.13348,2.13348,0,0,1-.03.2665,2.28779,2.28779,0,0,1-.06794.28865,2.14279,2.14279,0,0,1-.107.2744c-.03.0628-.07581.1449-.12635.227a.111.111,0,0,0-.01616.088.10624.10624,0,0,0,.0493.0687.11063.11063,0,0,0,.062.01977.11315.11315,0,0,0,.09677-.05409,2.63644,2.63644,0,0,0,.26886-.54847,2.5476,2.5476,0,0,0,.13585-.67913,2.10883,2.10883,0,0,0-.05528-.62343,1.61335,1.61335,0,0,0-.10934-.31156,1.55445,1.55445,0,0,0-.171-.28189.13565.13565,0,0,0-.08923-.05212,3.94173,3.94173,0,0,0,.79561-.95078,6.27777,6.27777,0,0,0,.43275-.81578l.04459.03635c.08215.049.14217.08411.20058.12477a1.921,1.921,0,0,1,.312.295,2.15556,2.15556,0,0,1,.216.34826,2.5108,2.5108,0,0,1,.16228.509,3.25674,3.25674,0,0,1,.03475.79837,4.28937,4.28937,0,0,1-.248,1.074,4.59473,4.59473,0,0,1-.51093.96779,4.00109,4.00109,0,0,1-.60134.65463,3.13367,3.13367,0,0,1-.56266.35933,2.43854,2.43854,0,0,1-.50774.16031,2.53034,2.53034,0,0,1-.38774.02882c-.0632,0-.12437-.00158-.18757-.00632a.50776.50776,0,0,1-.07265-.00513c.0553-.49908.07423-1.01238.08573-1.3188.00471-.1441-.06991-.23175-.17257-.24123a.19519.19519,0,0,0-.20177.1741,19.40048,19.40048,0,0,1-.35694,2.22971,17.60873,17.60873,0,0,1-1.41154,4.1731,14.10924,14.10924,0,0,1-2.04337,3.06476,13.99418,13.99418,0,0,1-2.62726,2.32289,13.224,13.224,0,0,1-1.40054.824,12.21008,12.21008,0,0,1-1.56434.65823,11.395,11.395,0,0,1-2.561.53067.09341.09341,0,0,0-.06794.043.11967.11967,0,0,0-.02406.09594.11714.11714,0,0,0,.12082.09163,12.62657,12.62657,0,0,0,1.53908-.23017,12.83751,12.83751,0,0,0,1.44239-.41424l.08723-.03156.08808-.03043a6.15176,6.15176,0,0,0,.40745,2.41921,3.70222,3.70222,0,0,0,.49316.85049,3.45268,3.45268,0,0,0,.6531.62662c.06.04383.12006.08689.18321.12793a2.22421,2.22421,0,0,0-.14965.2472l-.07265.13148c-.09479.1686-.19463.33443-.29695.49869-.16778.26731-.36481.55-.60132.86352A16.48765,16.48765,0,0,1,29.09663,47.327c-.59347.55952-1.26118,1.1336-2.04176,1.75432A2.76816,2.76816,0,0,1,26.53286,49.39838ZM31.11663,52.569a2.16937,2.16937,0,0,0-.20572-.28115,1.45988,1.45988,0,0,0-.24556-.21361,2.11648,2.11648,0,0,0,.3944.16983c.07265.02527.1469.05054.21955.07418a.21.21,0,0,0-.09355.09005.46449.46449,0,0,0-.07033.15634ZM33.404,58.61045l-.22667.045.00869-.00437a1.34963,1.34963,0,0,0,.212-.14725.80207.80207,0,0,0,.1323-.154,1.11616,1.11616,0,0,0,.11806-.22032,1.13456,1.13456,0,0,0,.259.398Zm9.16193-2.85469-.03159-.11964a1.59927,1.59927,0,0,0-.22819-.32812,1.33294,1.33294,0,0,0-.25036-.21084.90712.90712,0,0,0-.13346-.06671.99973.99973,0,0,0-.2219-.06833.53829.53829,0,0,0-.06238-.00632.20111.20111,0,0,0-.11093.03041.22052.22052,0,0,0-.11253.19505,2.46875,2.46875,0,0,0,.04738.30048,1.723,1.723,0,0,0,.12833.33443c.02371.04738.049.09318.07738.139a.3697.3697,0,0,0-.16783-.06751.86746.86746,0,0,0-.214-.02725,1.48945,1.48945,0,0,0-.27716.0304.20435.20435,0,0,0-.14846.14807.20649.20649,0,0,0,.05328.21085,1.71213,1.71213,0,0,0,.17257.13148,1.14035,1.14035,0,0,0,.20135.09555c-.30482.11251-.65463.229-.95869.32851-.76831.25152-1.57421.4963-2.4634.74863-.749.20808-1.54939.41179-2.44761.62382q-.48807.11371-.97924.21956c.00632-.0154,0-.04027-.01582-.07978a1.60716,1.60716,0,0,0-.12832-.24517,1.539,1.539,0,0,0-.28032-.32338,1.08377,1.08377,0,0,0,.16505-.032c.0608-.01459.1224-.03041.184-.05094a.88523.88523,0,0,0,.29219-.16662.44315.44315,0,0,0,.13385-.21991.36392.36392,0,0,0-.0399-.26536.36883.36883,0,0,0-.20888-.16585.52213.52213,0,0,0-.19108-.03515c-.01813,0-.03514.00121-.05409.00279a.90327.90327,0,0,0-.3696.11925.13985.13985,0,0,0,.01069-.10266,1.29327,1.29327,0,0,0-.1473-.46594.2673.2673,0,0,0-.2373-.1378.27788.27788,0,0,0-.23689.13743,1.13329,1.13329,0,0,0-.13306.25978,1.02371,1.02371,0,0,0-.05093.30287,1.016,1.016,0,0,1-.186-.05212.96785.96785,0,0,0-.30085-.05765.19758.19758,0,0,0-.16465.08094.2145.2145,0,0,0-.03869.18519,1.26039,1.26039,0,0,0,.12356.28507.9002.9002,0,0,0,.235.25547,1.05836,1.05836,0,0,0,.26138.14764A.708.708,0,0,1,33,57.93056l-.019.03751a.99835.99835,0,0,0-.08252.51882.19653.19653,0,0,0,.09355.16423.2.2,0,0,0,.09834.02767l-.064.00431a52.67825,52.67825,0,0,1-5.649.75968,1.81222,1.81222,0,0,0,.017-.29613L27.396,59.044c0-.12556-.00158-.25312-.00316-.37984l-.00158-.19824.00158-.17215.00158-.17176c0-.18634,0-.3735-.00158-.55986a.40293.40293,0,0,0,.22387.18123.35751.35751,0,0,0,.11806.02053.33486.33486,0,0,0,.291-.16109.37636.37636,0,0,0,.051-.22548.4592.4592,0,0,0-.092-.22938.23307.23307,0,0,0-.05135-.05923.73522.73522,0,0,0-.08568-.07107.26038.26038,0,0,0,.03793.00274.32292.32292,0,0,0,.10142-.01933,1.22347,1.22347,0,0,0,.32654-.15043.88826.88826,0,0,0,.24125-.24957.17777.17777,0,0,0,.01779-.14846.14571.14571,0,0,0-.09279-.09437.87447.87447,0,0,0-.1299-.03748.99751.99751,0,0,0-.16621-.02135,1.17747,1.17747,0,0,0-.29652.04149.78284.78284,0,0,0-.1019.032.54564.54564,0,0,0,.15-.13111,2.02542,2.02542,0,0,0,.19306-.26455,1.57309,1.57309,0,0,0,.12955-.21319.69232.69232,0,0,0,.062-.17176.277.277,0,0,0-.11413-.30284.25.25,0,0,0-.13623-.03828.33171.33171,0,0,0-.18715.06076,1.06842,1.06842,0,0,0-.29177.33919,1.45742,1.45742,0,0,0-.15872-.51645.20538.20538,0,0,0-.1078-.10422l-.01184-.52874c-.05841-1.637-.10737-3.11214-.109-4.58016a6.248,6.248,0,0,0,1.4376,1.18018,10.60646,10.60646,0,0,0,1.53078.79914.21492.21492,0,0,0-.04733-.00747.081.081,0,0,0-.02685.00473.28693.28693,0,0,0-.137.07855.31126.31126,0,0,0-.07855.30248,2.96637,2.96637,0,0,0,.10616.28626,1.28354,1.28354,0,0,0,.19784.30442,2.17363,2.17363,0,0,0,.20256.21.27088.27088,0,0,0-.13622-.03078,1.20786,1.20786,0,0,0-.19508.01777l-.05528.00945a1.11938,1.11938,0,0,0-.25818.08847l-.04267.019a.29673.29673,0,0,0-.15085.26141.29856.29856,0,0,0,.22037.291,1.58934,1.58934,0,0,0,.55115.08726,1.33055,1.33055,0,0,0,.15834-.00789.96693.96693,0,0,0-.178.46473.22471.22471,0,0,0,.05806.21832.28557.28557,0,0,0,.09948.05767.24518.24518,0,0,0,.06117.00787.2157.2157,0,0,0,.05965-.00787.68918.68918,0,0,0,.27442-.10979.77464.77464,0,0,0,.20648-.22072.57918.57918,0,0,0,.062-.122.105.105,0,0,0,.02372.08447,1.01349,1.01349,0,0,0,.20016.23891.95328.95328,0,0,0,.2681.17333.26938.26938,0,0,0,.11685.03159.21914.21914,0,0,0,.0549-.00789.22141.22141,0,0,0,.15755-.15992l.01421-.088a.78224.78224,0,0,0-.00313-.20689,1.12054,1.12054,0,0,0-.11574-.33562,1.49615,1.49615,0,0,0-.22148-.29969l-.05568-.05686.01619.00037a1.05547,1.05547,0,0,0,.28863-.05054,1.16474,1.16474,0,0,0,.18716-.07265.85768.85768,0,0,0,.1204-.06357c.03477-.02566.06952-.05209.10266-.07936a.24246.24246,0,0,0-.17134-.41654c-.02014-.0016-.04267-.0016-.06315-.0016a1.65305,1.65305,0,0,0-.46081.05886.86578.86578,0,0,0,.02409-.0995,2.17616,2.17616,0,0,0,.02685-.3009V52.411a9.52117,9.52117,0,0,0,2.04571.4c.20566.0158.41259.02527.61791.02527a5.48907,5.48907,0,0,0,1.718-.25586,3.20272,3.20272,0,0,0,.31625-.122.16207.16207,0,0,0,.08136-.10342.18888.18888,0,0,0-.01774-.13743c-.353-.71228-.72654-1.48222-1.06729-2.28654a20.88037,20.88037,0,0,1-.78653-2.1886c-.13778-.46312-.25509-.94209-.349-1.4242a.5711.5711,0,0,0,.1836-.11019l.04225-.03472a.27631.27631,0,0,0-.01424.14291,1.41939,1.41939,0,0,0,.17257.55123.15439.15439,0,0,0,.13778.07936.15157.15157,0,0,0,.13622-.07936,1.4953,1.4953,0,0,0,.16941-.53657l.00474-.05767.00471-.05807a.37208.37208,0,0,0,.1074.10069,1.48772,1.48772,0,0,0,.152.09834,1.037,1.037,0,0,0,.1173.05409l.04106.0158a1.09649,1.09649,0,0,0,.34391.06788h.00829a.23105.23105,0,0,0,.15912-.07381.21151.21151,0,0,0,.058-.1532,1.22349,1.22349,0,0,0-.07739-.37076,1.181,1.181,0,0,0-.18871-.30879,1.06274,1.06274,0,0,0-.28231-.21914c-.02093-.01145-.04186-.02208-.062-.03158a.35829.35829,0,0,0,.12316-.09672.9082.9082,0,0,0,.16468-.26138.85965.85965,0,0,0,.0746-.31274l.15.03753c.396.07423.81535.15318,1.23507.246a8.86577,8.86577,0,0,1,1.50594.43272,5.24692,5.24692,0,0,1,.89158.50027.91475.91475,0,0,0-.03475.2318,1.08158,1.08158,0,0,0,.01261.18834.53574.53574,0,0,0-.16107-.15991,1.06,1.06,0,0,0-.244-.12991l-.04225-.00513a.1463.1463,0,0,0-.07663.01937.14082.14082,0,0,0-.07615.13225,1.99509,1.99509,0,0,0,.03472.212,1.25513,1.25513,0,0,0,.10147.25349,1.31494,1.31494,0,0,0,.13938.20451,1.10769,1.10769,0,0,0,.111.1295.60653.60653,0,0,0-.2073.05531,1.257,1.257,0,0,0-.44027.31348.20987.20987,0,0,0,.14769.35775,1.11223,1.11223,0,0,0,.55671-.15046.94138.94138,0,0,0,.09518-.06075,1.06709,1.06709,0,0,0,.04267.35925,1.31605,1.31605,0,0,0,.08408.22983,1.18932,1.18932,0,0,0,.06.11882.61438.61438,0,0,0,.07068.10387.17183.17183,0,0,0,.13819.08131l.07663-.01419a.141.141,0,0,0,.109-.10068,1.292,1.292,0,0,0,.03472-.49119,1.65066,1.65066,0,0,0-.05683-.25349,1.24135,1.24135,0,0,0,.34193.20095,1.3869,1.3869,0,0,0,.27558.09.481.481,0,0,0,.105.01582.23078.23078,0,0,0,.04978-.00637.23639.23639,0,0,0,.09829-.064.1856.1856,0,0,0,.05962-.19071,1.13041,1.13041,0,0,0-.05725-.1378.51.51,0,0,0-.05725-.09829.96951.96951,0,0,0-.21717-.216.83932.83932,0,0,0-.2602-.11451.94387.94387,0,0,0-.111-.02724l.03672-.02766a1.22649,1.22649,0,0,0,.17331-.24441l.1019.14611.10739.13307-.00871-.05291.01466.04538a8.10035,8.10035,0,0,1,.92549,1.64571l.00437-.05683a14.27354,14.27354,0,0,1,.62222,2.13136l-.06278-.06833a1.20254,1.20254,0,0,0-.39363-.1587.81367.81367,0,0,0-.21243-.02567,1.16234,1.16234,0,0,0-.23293.02567.29569.29569,0,0,0-.20695.2045.304.304,0,0,0,.075.28826,3.66979,3.66979,0,0,0,.51724.45089,2.80767,2.80767,0,0,0,.37.22743.51891.51891,0,0,0-.16388.16625,1.12771,1.12771,0,0,0-.11725.22033.93581.93581,0,0,0-.05254.25507.16013.16013,0,0,0,.16507.16738.8709.8709,0,0,0,.308-.08565.87958.87958,0,0,0,.24124-.16505A22.12967,22.12967,0,0,1,42.56589,55.75576Z"/>
            <path d="M9.91431,47.02774a.22122.22122,0,0,0,.07183.08252.3672.3672,0,0,0-.094.028c-.049.019-.07423.02843-.09908.04109L9.77453,47.19C9.81952,47.13434,9.8669,47.08025,9.91431,47.02774Z"/>
            <path d="M21.34422,32.98037a.10808.10808,0,0,0-.09473.064,1.56762,1.56762,0,0,0-.07346.1536.10677.10677,0,0,0,.04977.14374.09169.09169,0,0,0,.04738.01144.10883.10883,0,0,0,.0987-.06238.61354.61354,0,0,1,.02644-.05807l.0391.02212a.08177.08177,0,0,0,.03554.05608,4.36529,4.36529,0,0,0,.58594.56265c.0632.04937.13108.09477.19743.139a5.02338,5.02338,0,0,0,1.273,1.5162,3.39963,3.39963,0,0,0,1.73142.72571,2.8241,2.8241,0,0,0,.89824-.05369,2.74667,2.74667,0,0,0,.43986-.13306,3.07709,3.07709,0,0,0,.47107-.23694,3.56375,3.56375,0,0,0,.80981-.691,4.96512,4.96512,0,0,0,.74743-1.15057.12576.12576,0,0,0,.01306-.05725,3.94863,3.94863,0,0,0,.52946-.34113l.03279.03473a.801.801,0,0,1,.08329.077.336.336,0,0,1,.02648.03157.14085.14085,0,0,0,.08131.058h.00081a.1238.1238,0,0,0,.08135-.01815.10813.10813,0,0,0,.04581-.077.09093.09093,0,0,0-.0182-.07581c-.01892-.02172-.03986-.04581-.0604-.06635a.68325.68325,0,0,0-.09635-.09514,1.58844,1.58844,0,0,0-.17883-.122l-.05018-.01618h-.002a.21023.21023,0,0,0-.13581.02762c-.0837.05964-.1686.11531-.25861.16743l-.04306.02959a.47985.47985,0,0,0-.05369-.00234l-.045.0004a2.10783,2.10783,0,0,1-.29811-.02054,2.87985,2.87985,0,0,1-.35143-.079c-.12635-.03635-.24954-.0786-.37432-.1232-.12316-.04225-.24793-.08531-.37428-.12436a3.09424,3.09424,0,0,0-.39368-.092l-.07618-.011a1.85407,1.85407,0,0,0-.21048-.01265l-.04262.00081-.04266.00077a1.66035,1.66035,0,0,0-.336.06c-.07581.01932-.15324.04419-.23062.06986l-.10424.03478a2.19927,2.19927,0,0,1-.34035.077.87659.87659,0,0,1-.11014.00631.89532.89532,0,0,1-.11649-.00514,1.59212,1.59212,0,0,1-.17175-.03433,1.5265,1.5265,0,0,1-.17455-.05688l-.11567-.04262c-.07383-.02648-.14806-.05373-.22428-.077a1.35132,1.35132,0,0,0-.3281-.0541,1.01306,1.01306,0,0,0-.28036.04108,1.52642,1.52642,0,0,0-.2377.08567c-.10108.04266-.19739.09478-.29414.14689l-.10424.05527a4.167,4.167,0,0,1-.44184.21915,1.51287,1.51287,0,0,1-.244.05648.34647.34647,0,0,0-.05843-.01541c-.06675-.00634-.13108-.01423-.19625-.02527-.14649-.09238-.26334-.16229-.38023-.24085a3.43366,3.43366,0,0,1-.27914-.21166c-.03279-.0391-.06436-.07816-.09595-.11923a.11368.11368,0,0,0-.08688-.04108.09179.09179,0,0,0-.04266.0099c0-.00792-.01144-.02175-.02842-.02846l-.04027-.01144-.0087-.00158"/>
          </g>
        </g>
      </g>
    </g>
  </g>
</svg>
