<svg xmlns="http://www.w3.org/2000/svg" viewBox="0 0 37.47491 33.13496">
    <g fill="#e33e29">
        <path d="M19.37242,0A2.20215,2.20215,0,0,0,18.235.31982a.66887.66887,0,0,0-.09364.067L8.38026,8.6439H.72033A.71967.71967,0,0,0,0,9.36423V23.0504a.71967.71967,0,0,0,.72033.72033H8.363l9.75537,8.958a.70247.70247,0,0,0,.116.08644,2.20206,2.20206,0,0,0,1.13739.31983A2.25806,2.25806,0,0,0,21.609,30.86161V2.27335A2.25744,2.25744,0,0,0,19.37242,0ZM9.36423,22.33008a.72033.72033,0,0,1-1.44065,0v-2.8813a.72033.72033,0,1,1,1.44065,0Zm0-9.36423a.72033.72033,0,1,1-1.44065,0v-2.8813a.72033.72033,0,0,1,1.44065,0Z"/>
        <path d="M27.94645,2.91948a.72073.72073,0,0,0-.46317,1.365,12.59271,12.59271,0,0,1,.01657,23.84781.72062.72062,0,0,0,.23267,1.40247.71017.71017,0,0,0,.23266-.0389,14.03439,14.03439,0,0,0-.01873-26.57639Z"/>
        <path d="M30.99271,16.20732a9.76755,9.76755,0,0,0-7.02245-9.33686.72042.72042,0,0,0-.39906,1.38447,8.27706,8.27706,0,0,1,0,15.90478.72036.72036,0,0,0,.19953,1.41255.73311.73311,0,0,0,.19953-.02809A9.76667,9.76667,0,0,0,30.99271,16.20732Z"/>
    </g>
</svg>
